{"hash":"a688cdf77eebb2a3ba6238b76037e0b571099a97","data":{"category":{"title":"Blog","path":"/category/blog/","belongsTo":{"totalCount":16,"pageInfo":{"totalPages":8,"currentPage":1},"edges":[{"node":{"title":"Setup and Manage Multiple git accounts in windows","excerpt":"Setup and Manage Multiple git accounts in windows","image":{"type":"image","mimeType":"image/png","src":"/assets/static/cover.771f6be.675e2d9fe2302942e0de694746839553.png","size":{"width":560,"height":315},"sizes":"(max-width: 560px) 100vw, 560px","srcset":["/assets/static/cover.771f6be.675e2d9fe2302942e0de694746839553.png 560w"],"dataUri":"data:image/svg+xml,%3csvg fill='none' viewBox='0 0 560 315' xmlns='http://www.w3.org/2000/svg' xmlns:xlink='http://www.w3.org/1999/xlink'%3e%3cdefs%3e%3cfilter id='__svg-blur-abe2b7fb86d2d4b28f45276aae747c80'%3e%3cfeGaussianBlur in='SourceGraphic' stdDeviation='40'/%3e%3c/filter%3e%3c/defs%3e%3cimage x='0' y='0' filter='url(%23__svg-blur-abe2b7fb86d2d4b28f45276aae747c80)' width='560' height='315' xlink:href='data:image/png%3bbase64%2ciVBORw0KGgoAAAANSUhEUgAAAEAAAAAkCAYAAAA5DDySAAAACXBIWXMAAAsSAAALEgHS3X78AAAHWUlEQVRo3u1ae1BUZRRnekyvqaZMkeWlhmkZlqVFgYUamoQotLLLLrAiSE5ZTTbOOGqZ1ZSazpT5aBqqycmwmjLRtRxAQBR5iZoKhMCCirxWdhcFEVl/nfPd3WV3FXzUamv98c2997vnnO%2bc33neBQ%2b0KvFfXh6uPuD8SYXtal3O%2b329d2sAnA0y6xXoblHY7q2Ln3m/W6%2b4ABC3jwCbN01036ECOmkZ6L4tFmin%2b9N0NdLzGZW0TLHXzPvXJALYszirxtYfXsC0lx6Blq7nmmPQUB6F8sIpqNobiY766SjMDEesPBCrl4cIemukuD0A5xiAc2p8uCgIN93sCR8fPwQHDUXgiCEY%2buAgDHtoEMY8EYAhg/1xy62eSIgdKSLFmhquBsHlKXCumQwwx2HtyrHod783HgoYDB9vP/j5%2bmOQnz/8afl4%2byPgwcHw9PSFhgFov0EAEMpTvrdTiE%2baMBwyLz/4%2bvrA08sLA71kkMm84SWTwXOg9Dx4kD%2b8CZzMTROpVkhp4HYpYF/Frfm/I30S%2bvf3gcxbhtGBj2DK80EIC34aY8eMQmjQaIQ//wwmPjua0sAPd9/jhbmvjRbF0r4OuCoaPFzZ80X%2bd8dR4ZuIO%2b7qD/WUCWjKT0dXdQkM%2bT%2bjKWcjWnI3on3fdnTXliJtxQL06ydDUsLjojs4zwaumA9cFgHc9kQEUGvLTn8RDzzghdxvP0FXZQlyVy5DW7EWZ0rScXa/FrXaNBR8sRqoK0LomKcxKzGQ%2bNRS/eCWaXTdYOThipzvbJDaXHNlNFqORONAXgQCAnyhXfcxzBX5yFnxEQxFW6GnCGgr/BU16esJgFXAsSIEj3oK785/EqeOTkdDRRQa/4yCviraZROiywBgw011chh0LwOIx/epIYgIDUVd1iagei9QlgFT5gZ0EQCoyAVq92PD0g8QNm644OHoMdbK0Ur3rTUvuwcADkAYpdBFmxLZW8NhqFOiIOMFvDN3HL5YosGqha9izYI5WL3wdaR%2bOAdrl6iw7L0Q8vg0yn%2bVowyD0n0AcJ790aZCZkYiZs8ORZdeI6JhQ2owbr3tXvT3HIDb77wPgY8OQGNlhBiYeBQWfNfoA8mFXYD3LJ0AM7DtpzBERD6DxYsjEPzsCDw5aigmh41AaMjDGPloAIqyCIAOS%2bG7yIeUW6WAMwjdLTE03alRnBWOtC9DMH3qMCijRyBi0jDIIx9G5OThyNsyDuiKIcCUNj7p6qbfAkJ54S2LISejgFMEBBbjzbkvIXT8GIyfFIyJ4cEInfAU0n97nVrfm4CeakCr3AaCtNx2FLZ6U47GxvlIry7G5/vq8dxUBcKUGjwWNBbBk6fhuUg5NEs%2bRVr9aWTrtGjXpxDPdDt%2btwcgGpup9X16BFi24wDe%2bGo75G8sgHLuAkyOowL5WRre%2blqLLyuMWF4GlB7/lip/BMwnVTcKAHK0NM/DtprdWK8zYmlJJ%2bZsrMB7%2bZ2Ypz2Bt9OPYV2lGd9V1SOvbjPO6JOIJ8b9I8Caw9YoYCBMLa%2bhQvc%2binWpyC1Lxa7Kb1Baswa1xxaR4bOI5oasAQxCrOWeJkMjGWmcQj2flpHanzGSQj5KGG620UnAnXf/X4Ud2xoDYRaLPnctyyxW7AW01%2b03QUeFr2xdLV9fvPb7VyO/L0A9estdxxxU9Hmw8zsYLDwGO8WNiovvmxQXGChoW3vobfs2PsUlDbbn69m7wgg42xQrJrPOJg5Zi2FGO1AszzYDLUZ2NPI8L/FZjThRFYeOBkne6RMqGz/vM60Awiidqa9Vo8tCx/TSSK3EmcbYnvPsnWN0vLKuXc2SvuariQChEE1tRQUzsa84EVk7kqErj8f%2bkhko268R1%2bOV8Sild1WHE5C/W6Ir3DNTKJGTk4wDe2n%2b3z4LjdVxMBxVYW9RIvLykvAH7Vce1Ah5zFNSmIjainjs3JkkAKr4Q4ODpTNw9M948U7IPB2Dw/tmoCB/JuqPxKGazmQZtSSD5fFz61E1jhxKQGmRJLO4IBGHiIf3e0C7kgggJlZwszYFGZnJ2ENG/vjrbKFoFR2UkTkLW39PwZZtKcjNTUJmVjIZniS8zoD8suUVscdKszK7yPjdu5IcDN%2bRnSz2WKZ2ewraT0gAsDwGMI/22Qj2ZA7tbfktBfm7ZqL8gEbIOEzO4LMyLOcwH/NnkwPYUQwegwlTzFUAQGFzql6FZp2aPKhGA3lSV54A03GVMJI91EDhW1QgRQiHLXuaeZmmqSYObcTPEVBHHub3vCfRqYUB7DG%2b5zNadJKn2oi3pixBRAPzNhIPn8cyGSCOAKbn1GEe1oP1ZFnsbU4T4zHpXOt51tpx5UXQmvO8OEfbYnqKGaHKacI5y0pb6Wz1wGSls%2bMz2clrtXs2Sct2JtMbevZtehiceIx2tPa62cl0rBl/sw2ane5FrWjtOaS3Zb6MVmVfrMyXIau36z/UBi8cZBxbTN/9uef9pXu5s3LO51wsMns3tLch7Dr/dfg//Q8S/wPwL19/AfhClNmF37AqAAAAAElFTkSuQmCC' /%3e%3c/svg%3e"},"path":"/blogs/setup-and-manage-multiple-git-accounts-in-windows/","timeToRead":4,"humanTime":"26 Jun 2020","datetime":"2020-06-26T00:00:00.000Z","category":{"id":"Blog","title":"Blog"},"author":[{"id":"boopathikumar","name":"Boopathi Kumar","image":{"type":"image","mimeType":"image/png","src":"/assets/static/boopathikumar.b4b2a9b.88a64e3560329858ee8479f29ae4cf5b.png","size":{"width":48,"height":64},"sizes":"(max-width: 48px) 100vw, 48px","srcset":["/assets/static/boopathikumar.b4b2a9b.88a64e3560329858ee8479f29ae4cf5b.png 48w"],"dataUri":"data:image/svg+xml,%3csvg fill='none' viewBox='0 0 48 64' xmlns='http://www.w3.org/2000/svg' xmlns:xlink='http://www.w3.org/1999/xlink'%3e%3cdefs%3e%3cfilter id='__svg-blur-d59f8e7b1d687340d3929028c9bdf315'%3e%3cfeGaussianBlur in='SourceGraphic' stdDeviation='40'/%3e%3c/filter%3e%3c/defs%3e%3cimage x='0' y='0' filter='url(%23__svg-blur-d59f8e7b1d687340d3929028c9bdf315)' width='48' height='64' xlink:href='data:image/png%3bbase64%2c/9j/2wBDAAYEBQYFBAYGBQYHBwYIChAKCgkJChQODwwQFxQYGBcUFhYaHSUfGhsjHBYWICwgIyYnKSopGR8tMC0oMCUoKSj/2wBDAQcHBwoIChMKChMoGhYaKCgoKCgoKCgoKCgoKCgoKCgoKCgoKCgoKCgoKCgoKCgoKCgoKCgoKCgoKCgoKCgoKCj/wAARCABVAEADASIAAhEBAxEB/8QAHAAAAAcBAQAAAAAAAAAAAAAAAAIDBAUGBwgB/8QAMBAAAgEDAwIEBQQCAwAAAAAAAQIDAAQRBRIhMUEGBxNRIjJhcYEUI0KxYqGRwdH/xAAZAQACAwEAAAAAAAAAAAAAAAAAAgEDBAX/xAAeEQACAgMBAQEBAAAAAAAAAAAAAQIDESExQRIiMv/aAAwDAQACEQMRAD8A6QRlPTJPsKON57BfvzRtuOVH4pvqVwbXTbu5QgGKF5ASM4IUnpXL6Xtme%2bPfM3TPD5vba2cXOpW/7YUn4A/cHHt/dc96r401zUr97q41i89VjkBJmRUHsAOAKr%2boXEt1ezyzOzyzyMzMTySTkmrNbeC5JLKKYS53qG29812IU10L9elkU5fySHhzzD17Rdq2eqzvHnJimb1FJPXhq2HwV5rJqzJDqlusc/QyR8KR9u1c8X3h2%2btZM%2bnkDutPdCuLnTJvUeFwo43EdKLaK7FmPRXn1HaEbLIiuhyrDIIr3AzVc8v9Uj1fwvaTI24oojbJ7irKOlcr5w8MVnnWkruNZLeZJcekyMrjr8JHP%2bqW6UCAw2kZB4OanBBxLaaW1/4ke3iVnhjkYk7cYUHjPtnitOhhkVUCAhVGMdqSjsZbTV9cEEYVzMAOPYGq3PqOu2dzkTRlcEsjkHnPy9OtdCTdz14a0lWi2zwHadwBOKiIowVu1eLho2GMfSlZtXu4rCCaa33PMMKFPU%2b1KeC55NX1uK2vbUwQzqyjJO4npx%2baRRkk2Dklo07yGsGtPBPquWJuJi4BGMADGB71o4pCwto7KygtbdAkMCCNFHYAUqx4PNYpz%2bpORkFK8NJpKruVBIcdVPBFNLjVLWCQo0ilwcEDk5o29IhvHTMfMhotJ8WBhCqRXcCyllGAXBIY/wBVVbq7s5ZBJ6cQI%2baRlzgVF%2bZN9qM/i2aS5B2Fcw5%2bVhnoKraobxmnWWTHRo1Py/TFb1RhLLNNNjceF01qSxu7W3RJYnz8oz/VWXyr0mJ9eMirvSCMsxPOCeBWNzRFJEkhlMTJ/LBH91vHlBqttbadcWdwm2ct6hlA5fjnP/VRbU4w/OwtvUdPrNP70MZPNIW%2boWdwVEN1C7N0XcM/8U6GD05rB8NdM6lnhncuq3VyS6yyAOfmzgkf%2bU1vdQlt4m/Q6dPeXHYMREhP1Y9vxT21t980kjDCg4H4o9wcMCOmetdGOF4YZNso2uWaazp0Z1MRWGoRuSFZxgfY9wR/uqFrHh26srolWaOQ/wAkOVetn1Szt7sAXESup9xUYvh/TVkZhCy5GGCuQD9SKtyurTLKb5V/l7RkFlo80lxFc30zi3Rw20L85B7DvVytbW9uJI54Xmtoc5EYcqT/AJHHer3FZWqQn9tCF4zt64pW0tVeIOyDLc06twiq6btlkaorSKkiArnqM8qfpUzpmq3VtIN0pZgP5chhnOPvSAjC/D2x0okkXP25FUNKXQi8cH8jH0xj4V9hRHCtBjtiiSNvXZn4R3pG5aX9PL6IDybTsVjgE44BPbmoSJexLO5CT0FFAyTmmlhPdNp8EmpQJb3BUl4kbcFOeBnvTiMlpVzxu9%2b1N6Kwj5WKZR03cfmpK14jA%2blRl8RHJ6eQTuGSO9PbaT4BQ%2bAHuDtkBpK5l9MKSOCcZr2dwc803uGEtowB%2bIDj70ICQjGYzIe3QU0mnPOBihQpUO9EdcOWkQH3pwGzgmhQp2INb0n14QOBinlvIdtChUvhC6JSSncfvRVc7iOxoUKBvD//2Q==' /%3e%3c/svg%3e"},"path":"/author/boopathi-kumar/"}]}},{"node":{"title":"Add Prism.js – Syntax highlighter to Website","excerpt":"Prism.js is a light-weight, open-source, easy-to-use syntax highlighter that can be added to your website and blogs in minutes.","image":{"type":"image","mimeType":"image/png","src":"/assets/static/cover.4250cd3.4a3649779cdf1f4d77262064ecbc9b7b.png","size":{"width":800,"height":450},"sizes":"(max-width: 800px) 100vw, 800px","srcset":["/assets/static/cover.1b91758.4a3649779cdf1f4d77262064ecbc9b7b.png 480w","/assets/static/cover.4250cd3.4a3649779cdf1f4d77262064ecbc9b7b.png 800w"],"dataUri":"data:image/svg+xml,%3csvg fill='none' viewBox='0 0 800 450' xmlns='http://www.w3.org/2000/svg' xmlns:xlink='http://www.w3.org/1999/xlink'%3e%3cdefs%3e%3cfilter id='__svg-blur-0fb710f9d32f3a918e8ff253bb94c24a'%3e%3cfeGaussianBlur in='SourceGraphic' stdDeviation='40'/%3e%3c/filter%3e%3c/defs%3e%3cimage x='0' y='0' filter='url(%23__svg-blur-0fb710f9d32f3a918e8ff253bb94c24a)' width='800' height='450' xlink:href='data:image/png%3bbase64%2ciVBORw0KGgoAAAANSUhEUgAAAEAAAAAkCAYAAAA5DDySAAAACXBIWXMAAAsSAAALEgHS3X78AAAVIUlEQVRo3l1a%2bVtVV5bl3%2blf%2bvuqh8poRk1ikk4qMQ5xiDGWM6PMAiIggzIJgiggIPM8D4IMTjGd6i%2bp7q%2bq0lomcYg4DyAK8u65b/Xa%2b9wLVP9wvvvefbz7zl577bWHQ4jz6laYZdvgLN8N96NwuJ9EIfgfkQh%2bthfBNXFwV0Uj%2bHkMgqvjEPwyEcGNicCWFAR3piEYlYNgxjG45U1wazvh1nUi2NjF1Q3T3A%2bnbQhO1zCcnjNw%2bs7ADI7BDIzC6ea9mg6Y4jo4hyvhZB6Hk3UCTu5JOAXVcHIqYLicvCo4%2bXx/opnP69NnmvYhPmcc7pmLMMPn4bQOwKnvtn%2bbVAQnNh9OdB5Xrn29j/eyy%2b1z5Vnye0dO6TIFNQgxL38D543tcN4Lxfz7YZh9PwLPP4jCs49iMPNxDKbfi8TUCll78eSjWEx9EoepzxIwtSYJU5vTMR2ej%2bnkMjzNqcGzgjrMFtVj7lgz5qu7uGFurnuExo9y06MKgBrfQWCq22FKGuAUnrKbKq2HU9YEp6gWJp/GCDil/LyskSDy78cv0OCzcEbOwUx8C3fsItzRi3B6%2bXyC4xxvUuCc1BIYMTquAIYAmJSjMLmVMHknLciy5Df4Wy5/XwEwBODFu3swtzwMM%2b%2bE4dGbYZh8LRzXXw7HL/8ejqv/EoorvwvF5d%2bF4fK/huPyv0Xg8kuRuPJ6NK6%2bk4BfPkzG9bUHMbmrEI9SKzBT1Iy5qi44LYMeA7jJfrKgl687T1sQyBjZtDnaAHOMRla1WVBKG3U5la3KEqehRw0349/S8Etwzl/i9aICECQAZvQCn8dnVrQooIbGOYcIxP4Sev%2bIGmwKa2j0KWWaIRvkb8wxAsDfCTGvbIXz5g48e5MhsDIMQYaBszIc8x%2bEY3ZlBJ6tjMTMyr2YXhlDBnB9logn9P6TDamY%2biYT02F5eJpYiufplZgtrEOARrj0sKHRRowXY3s9%2bp%2besNehcYLDEKmgkcebreH1ZEwdQTvZat%2bfIkBtZFAbQew4bb87TO%2bPXfS8T0ac4Ro5b1nA7%2bizSGsNn/RjMATBpB2zoSVsYpgYsk0B8IAOMa9vQ%2bDtXXjyZigCH0fC%2bUM0XGpAgADMLA/H4%2bWRGg7O2ngENycB2w/AjcyGm1iAYFoJgoXVCB5rQFC8Sa8Z8WzroOdp8bylvnv6LNyRC9aI0%2bNqkBooxsp3hMYCXBOvEuuiIU1cEkZy7RgkcBMIjn2r1HdPn9NnyrMUJNEBYQz34hypsTEvTMgos4aTZUJ5U1irYWeO1uu9ELNsO%2bbf2okHy8Lw7EMaT%2bF7uiICt14Kxd03InBnWST%2b55924%2babe%2bFsToHZmopAeDacREsv50itpbHQlh41FEKNcTFePD8wppsU0bLCdU7Fy0j8ihflb0XIZImnKXJqtAAgQPLq0jgjBvJ5LgEQr7sEwx0as9rSb0U2IM8igKaxl6CSUcIm8byEmDiIVw0TWQwB0YEQQ/Wff2c37rwaiicfEIAvE3DvrUjc%2bH0ofvrnPbj/QQx%2bezca15dFYW4TAaD6O%2bE5VlwoVqaoTmNJHqb0bexR49XwgVGr2LLhUStartLWUleNGbAhYSRTiCcFNLLHNBGElgE1SDKMOUXvdp22tJdwUOMFYLsEAAVdWETtMY38noSVfE/0pbzZimxZk43/kkZ9HWI%2bjcL8h5H4jR5/9N5evFgdj/tU/NtvReHG65G4vzIW9z5OwM0VsXjweRJMWJZNM6SWIf2N0EnUXESopt2KFo1xaZQujd3zavgCCBrHpLII2%2bh5FTVz5rzNFmrcuDLC1Peo59X7NEYBELAEWF2e8cIA0ZxuT2TJINPQZ7/rg3eyDYYa4ce%2b77QQsz4B85/G4Do9fu/dKATW0dg3okj5KMysTsSLDckEIB6P1yQD8Ta3GuZbVdMCMkDyKfO0Q9EyNF5oK17V%2bBy2carxKgDQcDN%2bUdOYrnOyvoM5e0lV3gLEe2fOwWkfVACEBZpOZQlLeu0yfaOLxvd5AIjoShgpAD0aOm6dZYGpsSBITbHABBFBd9M%2bvFgVh19/H47bb%2b8Fvt6Ha69E4OrLkfh12V7MrE1CYFsari2Px2zYIbhiPOnvpJdpYaHeJ8Uk7tR4iVPxIo12BASPCUJ7hwA4NNyhsQ697tDwwMQlTW%2ba4sYtQ4QFAfGkGC9Zg0Kq6VQoLlc/tfYuAqKeF%2bNbLf2Xel8ZIFlCUmt5iwXhuA/A5mSl/c8EYJKxji3JmP6UQriaQFD4Hq9OwvzuTFx9Ow6/LE8AqPxqvKirKK08UH6kqVc3odSk6OHMBDBG1T5tYxznLgIXvlPaB89ag4P0Pv7ze%2bD8d8oICCsENBqMHmukFc2zmk0UADFUlgAgywdF7w9ZABp6NaWa2o5FEGo8LRAQKhZBCAl%2bsx/z65Nw9aUITC5nybvtAAzvubzObz2AF9vTEYzNw9zefEyuTcd8UglcKV0Psqg4WmdzrzLA0l82JOp8v/k0/lbWh6dtp7UmuFo1iJ9rhpnGLmJm6Bzm6ennwxfw5/JhPOg%2bi3mGyHTfOQI2oSA%2bbhy0KXR4QkNqqaHGL68XaD%2b0AIAjpTLTpoIgIeBpiGQnBaK6YxEArhDDvP6C6e3vpPyt92Lh7k6HszsDzp5MmPAsmL2H4cQXwGVhEcxhTZ3Jyuqgrd0lC7iiARJPgrSkMm4oyI0XbqnFSEYHToU34HRyCyp316MzoRl9aV0YzOjGpaJ%2bnAhrRk9aJ/5cNoTv%2bD7liyoyZxw3q/oR83EFHrUNA8PjCPQu9bK3/JDoXryvKVScoAD0qIaoBsjelA1LtECYoADQ0y%2b2pOLqK1G49QEbnvBMOJGHbCMhK6EQJrkYhrQPiPHSqEhzIVep4aXOluaCoaBqzVTm0jM5G2swltmB8j0N6ElqQcnWWtQSjLOHutCZ3I5LhX3o4rUpoR1PyIDvi/qQtrYal4/3YTSjHZlfVmOybkgBcPpHbLVHozXXC8212bJV4gI47bamUA0QAGSp8e0aEq6nC1owVdoqlBrAGP8qBT%2b/GoVJH4CowzD0umEtrYq/nzmfDFCvS5kpFZYY7y1tNFhZ6UP5I6CCH95QjYuHOoGhUfxXfhcaxPiMNgzub0VvUisu5XUBI%2bP4oaQfuVvqMJrdg4u53Ti2sx59%2b1rQQ7Zcq%2bwHVENs2vPFTikuYIuBkh18TfAYYQiMEQGlMC8woK5rURcYDtK0OawHQlymwRfrEvHLa1G4vZIAhB1kocNKLyZPqz2T7AFwoBQmg3GfVb4IgnifQigMkDJTKOWyFpit6UT1zlrcrOzDdPMgJtJaMbKvCVePdqEtsgH9CU2YyOpAXVQj8mh8U3wbxnJ68P2RHvSltuFPBKwvuRW/VA0AoxRAiqDr5X%2blfMuAR/Fu9bbfdhs/OwhIvCefBbXH6FChdqRO4ZIwmD54EgFbBzDXs8%2b/9sZe3GXB44YSgDABIN8CkFKsDYUwwIjyCwuyPRAEAKkGWV%2b7R23JiZo23C2hl6Pr0RvbiG4uMbg/rlHvDcY1YCC%2bCQP7mtGf2Iz2hBYMZXSqLvQd6MSwvD7Qhi6y5MpJhoCkS60nJjQ76DxA83wvguJRqRWavHDw9aHdMsDVarBb5xTGpz0Fe/ZIPR7GH0NAsoC7iSGwKRk334nB/U89AMItAIbxLy2lSfW6Kk/8dMBABgj1Tf5J24F5/XuACuuSZmhiKLDZkXDQ1Uo6N/dy9QAtvfa93Ce9MXZeDQVbXX09PEYxHGO7e8HrH87aJcWPX%2bVpoePFtSh%2b0xJN0HJ4wCuHuxfCQAGobMGT1HLcDT1iGeBuZRr8ej8m34/Do1X74O7xAIi1ABiywE2xIaCTGzW%2bUltM633beQkDcMIqa4AoB/iDAW4swI3NczO6uHFHlFkFivHZOoQAKTvPNAdtjgjCOGsFGvuCVR4WymUWUWx%2bAuz75XmOGtajnnU9cdNnivhJ/MvyukhtjOQzadIkXXN/DyKLcXtrrtcOs7uTfH//D4mY3rgfJpSpL8xqgIqgxL8wQAHwsoAY79Of3WCwuB5z7LFvH%2bLnzAbg5kCVRovdCLppTOcIGTEMl%2b9n2akJOI%2br25SyoMG3Gzs01m80d2GODZQURQ86CRp7BAECI2eBAd7vPIOgDFoWxM0HocsaKiCo4X0eAF5G4G9q600A7mzPx61NOeo0BSCwIx2P16Xgxc6DMEyBJiIHzt5cmwK17PXo71FfY99jQICGo7wNf00rQO76LfguOQc/5RzFj1mFGN%2bfhfaYFPyl4Dj%2bm%2bvHgjIEu0bQFJuMpphkdMUfwA%2bFvF9WgVNx%2b3CusBRN%2bzNwsegY/lpeg9aUdJzJK0Z3xiFMFJTgh2OVuHi4CHerWwnugBU0r9pTNiyERM/CWtoPaCVIAG5tPoSb67N1JqB1gLP7IGY2p7HwyVYA1HjJAjJXS6QO0PsBb56mNYCIoMztSP0AGYCKdvwp9TByN25Fzc5I1O2ORtGWnTgVGo3yXVHI2bwNJyNiUbw7HEHSvSY6AZWRcawHMpC7dRcK94SjODQSJaFRaElOQ1lEDHK377H3IqLRciAThWFRKI9JRFNyKma7GONS99d1L4SBgkAjdXlpT5lR6xvfvlD83NyQjRtrMy0DxHih/NzOLAtAmNQBh%2bxAURggdUCqrf/1KkD4k1XJ/VxgQXG3qArXCssxkZKp16mKRjzgulvZjOvl9bjb0IHJxnYEBkcxTWo/7ejHVM8QmpPSMJCWgykK42R1C5429eDbvBJURsXhTn07S%2bpuPGzrw722Htzn9%2bZYFEnIBCTt%2bV1f3ZJ6X5oev9ITo6vsexFnHZxS%2bK7T%2bOurD%2bosI0QMlpLXiaDRkYd12KEpULzvGy8ZIMM2QFoGH67QL0sh4dfUYI0NxvXTk80al2iyGoD20zZ22eSAvb/L2h6yJLYpcA%2b6BjHHKg/94wj2MiP0jWGKmeKJZAu%2bhtyTJc8YnIDb79UCHV632NC7SHGv4QnInmQK5O1tafsr9cr1LzJwbVWGZq8QE3pQhxyGtA%2bI8En6k3GXFEBS/EjnJ%2bovfYBUfRICwgKZscuPSDdItAOC9ClJf312riftMQUowLJVa3lpaIbGvFZ5goJ3XltkjF/S4UiAnwVkrEXjgmx0ZAX8EpdpLcD8v1gGDyyqvF/eyu/TywGZ/fEaLGtkaq6HW2anvzoPLLX3rn2ejmufpemskABkWgAibP1vtPortp6Xjk/WQs6vspWfP12VMBCEq2x1ZZXY5mR/6VhLylN/NihFjUyICIKMynTK6w1DZMxlR1vD/9j8%2bKWtNxwxS9Xd9z4d4bIOeZ5ejhvrMjGXXaXD2udpFQjkn9JspcMbpu3rq9IIwAEV9BDDrs/ZlaHx73je13mf0D7La3povCuGS//PB9iH1erJioIg0%2bC6JWmo0dugsEDnfCN2MOJ7f2BxUiw53l0YhHjlLr1vlvT%2bxve83%2bb66l7b6c37WuxQlnsLFlbh7yv2Kc0dVqh3mO9vrj2Ih6EFmElkK19QpQBcJwDC5hBnO6mw3Q46ddbHJshJWWSA0l4LHnuUpFcBwSuADPVAj5m4EWWAb7jM9U96QiSCNeQdi/XaUbkrbGBxI8NRGZPpnFBOfSRUvD5fQDB%2bjd/lNTlezKvSk3VW3Jr1tEeKsyD3MxN9BDfWZKhzpuNL1OC/vR6HyQ2ZCBacxM3VabjxeZpmsxAZfuiSdChsECZILUAwTMIRK3yS82m8IGoKTimKUgIrMPKZgHGyzeZgOdwo9Y685LPDLJVPNNlpTeewbVf7/aGpPeywg9JvbUgIAGKw1PPtNt057Utif6HD81RfvC9aJPvTA5EyIOs4Hm3Lwf0duZhLP46p6CL8ti4Dk%2btZ5bKhk%2btvBEG0LMR8lQyzcZ9dXyXBfJ2iYGhFKAeMcryUbY%2bXzJE6pZnj60G%2bNxSVxXgzMhmW8bNoBqtGqRy1ZpC0KZsVw0QXeryQGPIOTGRgKsZLeEjD4w82dfUvxny9V/9rjpfU124PTmUyJTWKCDaFe/KLA7j2YRIebM7EnY0HNSTufZODe19na2jf25yFWwREQjzEbEiEWZdg15dcGwjEZoLC6nAhLOSISQyRHkBOYb1aQFkgXj7kDUekSizwTmC1WKpePPGVsJBWtd07MZbTYklp4vEBb/CpWWDEzvXEaB%2bEFj/%2be/6xuam2AOjzRbMkbbNwe74rG7%2b%2bG4cbHyXh/sYM/O9rMbhFUO7T8GBmGR7tOIw7X2Upu0PMWhq92ltrvcX2WEHYlmbDQiZDcvQsS7Qh88TiQERTZIUtk0UzpGz2hyeiF0w7GgKtA0va1aGFSY6NdU/1l4qdaknfPwIh6bXBCzOd8lIARfwIckD2xVQu2WxuB4uxFfH46eVo3F2XhvubDuLO2nTMxbKxo9HPIvPxYAvZsL%2bUAIixYvQX8TCfx8Gs4nVNApz1vC/hwV5BwkHHZDokKVwUyHSvQBIAfBCkeZI2mqlUT2MlPOR/ASQdinHizVa7JM7nKWyS43We1zLw/%2bjueVuzS68emGqYsaV1jzdqrg%2bW1tvzyQMlQEwuwCpWlksgZsmEqW3ZeB4hDjwKV5q6JO4rvhBTW7N03hGilP/S8/zqeAvEmnh7b2PSgkAaKZnZJBn/YETCwkuXOigRMNJKtXvUekLP5ostMNQFaV6eMCtcSs/Hj2yWbINUhr%2bwGfrh0FFcOVKhnaLjT3M1v9Ng8bScOMt7MulFZgWeJZdiOrYYjyML8WhPHh5uzcYDUv3B2lQ8XL1f1yO%2bntqcgentBCD0MGYjcjEfWwCXjnFZ5Mm9QFQuAaDoOSJ8f0y1AugLIhngMAwc3nd2pttiSc4EpVqUQknCwZsZCqLaOfor6rBljDBBwCk%2btTDDe86iZZbX6YYuPG/pw4uWfszR27IW4txrZDTOqfIBiu/znCpMM48/3JmL25uycOOLNPz6UQquvrcPV96Ox5Vlsbj8arSuK69F4%2brr0fj5rTj8uiIBv32SgnsbMvBk%2byE8i8gjEIUIEAwJmRA1fEeaelgLIol5CqBqwJYUBUC9L8aH5Wi/INlBjRSBlLCQ2JM%2bQrrIvXm2qYrI1prCkJoiknp0Rg%2bLl12GQbBtCK7M7WSKzPeuH%2bcy7Kjr9FS%2b057nFdRiPqsCc6nH8HxfCZ7FF%2bEZ43kmrggz8cX2GsP3pPoMPTuzIxszf8zEzLZMPOP7Z%2bG5eB6Zh9mYQswxFAKppZa93N//AZuVQ2k4wJ/fAAAAAElFTkSuQmCC' /%3e%3c/svg%3e"},"path":"/blogs/add-prism-js-syntax-highlighter-to-website/","timeToRead":1,"humanTime":"20 Apr 2019","datetime":"2019-04-20T00:00:00.000Z","category":{"id":"Blog","title":"Blog"},"author":[{"id":"eswariboopathikumar","name":"Eswari Jayakumar","image":{"type":"image","mimeType":"image/png","src":"/assets/static/eswariboopathikumar.dea1acb.dde169cbb22201165b7439b3decfcd9f.png","size":{"width":64,"height":64},"sizes":"(max-width: 64px) 100vw, 64px","srcset":["/assets/static/eswariboopathikumar.dea1acb.dde169cbb22201165b7439b3decfcd9f.png 64w"],"dataUri":"data:image/svg+xml,%3csvg fill='none' viewBox='0 0 64 64' xmlns='http://www.w3.org/2000/svg' xmlns:xlink='http://www.w3.org/1999/xlink'%3e%3cdefs%3e%3cfilter id='__svg-blur-ea57635d54ff29a6ea633827f1c6cf7a'%3e%3cfeGaussianBlur in='SourceGraphic' stdDeviation='40'/%3e%3c/filter%3e%3c/defs%3e%3cimage x='0' y='0' filter='url(%23__svg-blur-ea57635d54ff29a6ea633827f1c6cf7a)' width='64' height='64' xlink:href='data:image/png%3bbase64%2ciVBORw0KGgoAAAANSUhEUgAAAEAAAABACAYAAACqaXHeAAAACXBIWXMAAA7EAAAOxAGVKw4bAAADC0lEQVR42u2by2oqQRCGjcZAwBfwAllpvEWfQdx4z8JXCPgMgguFmIXLbDSggoiPo5iNJARX2boRFW/ROnRDi8w5CrF7anrOzEARQlqr880/VV3VPRYw%2bGUxAZgATAAmABOACUB/136/PxgaAOZM6Zx3EroBcOxYOQlZDEUBWt11zWPAMendbgfL5RIWi4VmRvwr1YgCgPzz5CoUCuB2u8Hv94PX60Uz4s/j8cDT0xN3PLgoBjAAiUQCLBaLZhaPx7nuPrcCcrkcncj19TVcXV2hGfFH/CaTSVwFKAFks1k6EZvNhnrnrVYr/UkUiKoA5SNgAjABaAOA%2bVMCQM8CsilASgAkapO/i7Sbmxv63alUSm4A7E5VKhUYj8fQ7/dhOBxy2/v7OwwGA/j6%2bsKtBS4F0O12Va0K0avB3wJoNpt0/Hq9hp%2bfH2HG5iG9AlqtFh2/3W5VK4GlTIOnAOi6JWYCkOQRENUWQw%2bC5LO8JrIXiQKg0%2bmolv6kVgCzaDQKj4%2bPtH4nq7dLLZPJQCwWg16vR/2TVMirBF3WAsVi8a%2bYIjUAUg%2bQx4HX7Hb7YWktKqvoSgHMT7lc1pcC1AZgeAVID0B0N1gZAwyXBUqlkr4U4HQ66W6Oz%2be72O7v7yEQCIDL5YLX19fDOkAXS%2bF6vU7HT6dTmM/nXDabzWC1WgnbnkcB0G636Xj2OdGdIOkBsGpws9moUg2a/QATgMEAnDqiY6gYICoe6DYLiMoIKADe3t7oeJLHSQ4XZeSM0L/6jNKtBMl5noeHBwgGgxAKhSAcDnNbJBKBu7s7aDQaXKtClM1RNesC3t4AakdIVFV43B16eXnhyjC6rAaPfVarVTwFyHJI6hwAwytAVQAyKYB1hzQFkE6nUSL9uezy/PysHYB8Pk8n4XA44Pb2FtWIT%2bK7VqvhB0Hm5Pv7G0ajEXx%2bfsLHxweqEZ/E92Qy4dopvviVGZnKWrSOkJKyiK1uHmPLX3QFyPzKzG/PE%2bn6rbFT8j/XI1D%2b/l%2b8NnfuLhtCAezYzKkYdTxGCeAPBVajw1K4ycsAAAAASUVORK5CYII=' /%3e%3c/svg%3e"},"path":"/author/eswari-jayakumar/"}]}}]}}},"context":{}}