{"hash":"356c3ea6480dbaa7d37df5e1c1f2ab159de33f00","data":{"category":{"title":"Blog","path":"/category/blog/","belongsTo":{"totalCount":18,"pageInfo":{"totalPages":9,"currentPage":5},"edges":[{"node":{"title":"How to send email with attachments in Node.js using Nodemailer","excerpt":"Learn how to send emails in Node.js using the Nodemailer module","image":{"type":"image","mimeType":"image/png","src":"/assets/static/cover.4250cd3.a2359baff849b8f684836f5a43dde302.png","size":{"width":800,"height":400},"sizes":"(max-width: 800px) 100vw, 800px","srcset":["/assets/static/cover.1b91758.a2359baff849b8f684836f5a43dde302.png 480w","/assets/static/cover.4250cd3.a2359baff849b8f684836f5a43dde302.png 800w"],"dataUri":"data:image/svg+xml,%3csvg fill='none' viewBox='0 0 800 400' xmlns='http://www.w3.org/2000/svg' xmlns:xlink='http://www.w3.org/1999/xlink'%3e%3cdefs%3e%3cfilter id='__svg-blur-a924d2c5c263b77cc000cffee5c263fa'%3e%3cfeGaussianBlur in='SourceGraphic' stdDeviation='40'/%3e%3c/filter%3e%3c/defs%3e%3cimage x='0' y='0' filter='url(%23__svg-blur-a924d2c5c263b77cc000cffee5c263fa)' width='800' height='400' xlink:href='data:image/png%3bbase64%2ciVBORw0KGgoAAAANSUhEUgAAAEAAAAAgCAYAAACinX6EAAAACXBIWXMAAA7EAAAOxAGVKw4bAAAGt0lEQVRo3uVZWW8bVRQOAglQkaq2UqFSS4sKFNoinhASDwgJwRu88cIDb0ioUptGSgFBszQhJU2TNAtJnb1OnDh7YseOHWdf2jheEmezZ8ZL7CxSKSJ/4eOc64zlukkQwpFi9eHo3pl75px7vrPcMzNpsizjeaa0gxAqyZKg5w4ASZJi4%2b5z5pPEGD/fTc5esg59BKibDMgKfM8YETXYT6MSM/5ZEFQZ/LyfRuWAjD%2bwCFiVvHi0Oo%2bQ7CcjfHEgRI13rspY9DJIEq3HRUWC8UFFhmtVIl7pwEBIOgC8US8Z/c1YGUaX5xBRguI6apSMDb%2bEVoeC720hrPsT0yFqoJfGEBlvX/bh6z4PHCsSAkqKAMAUIM9/MpSLT235WPatxtKBAWCje90KTuoiKJgKCEC8MRCinmcQOVI%2b65zHaa2bZKRQBMg7Ofvl8O84ZriCbycqBACqZxmAHpeCc/oIzrdHUGf3YzMgUdpEn4%2bCJOM74wLSqp243DqfWimgAvD5cAHOmjLwhvEark03YF0JkZESIjsAvEXGv9cRwcXOsIgIBoY9vRWUccO6gJc0Thypd%2bN9XQoDcHrgOt413xAg3LZ3EQhrWFN8sQi4TMa/TUB81BPG2KKM7TUFxWMevKyZw7FGN16tc6U%2bAO8QAOfNmXiToqHOZcHfwRA6XZIAgL1/iegszb8yhVE1uYhjmkd4jTx/vMGNV1IZgC%2boBnAKXDD/KIhBuGD%2bCaMrM7AthCkFwvigKwoAR8LFznWcbZFwtN6F4%2bT9E0RHaH4pVWvAx9YcHO3/Aa8br%2bIk0SlKg6P9V/ChJRN3Hs7iVOsmzujDONMWidG59g2c0Mp4gfL/xRoX0u47cYZOAY832hClDAAyVfKmxWHcdfTinsuAotlu3LX3oNjei2JXD6odYyidDqJkRkHpjP8pKp8NoXBaQt7YEnLHllE6tSyKpyynUB/A85mRcYSokVmZm8f2xmM8WdvE9uZjuKfsiEgKtrfCeBIO4EkkiD9pfBxSxFxacEJyO4g3gr/EWnDPd4bDmwKKgmvX0/Hb7QJUae6jo6sTPf196DX042ZOFvTt7dC16WG2WGmtG4PWIUxMTcM0aIHBZEZ3b5%2b4ZxmyYcA8mDovQ6IVJuOXl5eh0WiQk5OD9PR0FBYWIisrC9nZ2cjPz0dGRoa439jYCIPBgLa2NtTW1qK0tBQ6nU5QSUkJ6urqYDKZEAqF4PP5UqcG8GYdDgfm5%2bcxPT2NkZERzMzMYGJiAlarFbOzs7DZbPB4PAIsHqempgSvy%2bXCwsKCmLOMlZUVAWpKvA0%2b9TocCMDv9yMYDGJtbU2M7MlwOBy7x4YxqXxMPFevWUa88Yc6AhI/YMSTGr48xs/34kukRPnJ/FCS9l%2brO2/S6/UmKJf2/RoUv8F/W0u8jgdlLwD2%2b4qU1AhgoRzG6%2bvrYs5AqICo3lVPgXiPJ/LwXIQ%2bhbjg2wGUQz9eLvOwPpV3Nz3qPfXa94xzkhgBrGBkeBhtLTqhNBKJxADhfN3c3MTw0BAeUsHjHGcKETFfhHj4mvm4DnBx6%2bvthdvtxvrGhpDNcx75OkhyuRiOUgH1LHgwZ7cL%2bQGqDaxvkgrq1OQkNre2BC/L42LKulQgk5oCLJQV3MrKRk9Xl6jWHfp22Oi81jY1YXR4RGzqFh13E%2bMTwjMdej2sFgv0ra1oeaCFkY688bEx9HZ3w9jfj4qyMnR1dMDQ1y%2bKHsvt7uxEi1YLJ50ATqcTGVevooGOyAF61tDXB/OASdzPvZkl7vX19JC%2bcbhpP60tLegnnhk6QQI70ZX0GjBgMKK06C6yf/kV94qL8Ud5udhgyZ0iaKqqxZy91VRfjzw692upHygpKkJNdTXKS%2b9B29gknuXnqioqBd2m3oA9r29tQ0FengC0jXoBjoAG6gV%2bzswUPGxsZVk5CgsKBHD5ObnIJcANBKZjbk7o5zUGWO0dkgaA%2bNi5ugpdczPqamrQSBtrqK0jjwwIL7PntNTYVJJhHMqWwUHabBlslBK8ZqUujz1cVVEhgGNvNT94gE7qCsupAVqhfsBkHEBTQ4OIEpPRKPoIi9mMdmqUWCfzs/52AorlcKRUVVZiiHoLnbZZpGY9OYBlclocSA1grywtLYk85pTgUI8VIEKc19Q%2bgOdeAi3xLGcg1We4EVrdhSdeN8viFGF5rENNR64HDBxTU32DiIrdjsykngKsXDWW54kpohoiAItbT3xXiAd1P%2bMTHRC/j/jnPeSY%2bPtJL4L7NTrJoP8rezdnJD0CDhsl4xdaSgNwaP8OpxL9A7Sdd8b1kuu8AAAAAElFTkSuQmCC' /%3e%3c/svg%3e"},"path":"/blogs/how-to-send-email-with-attachments-in-node-js-using-nodemailer/","timeToRead":2,"humanTime":"27 Sep 2020","datetime":"2020-09-27T00:00:00.000Z","category":{"id":"Blog","title":"Blog"},"author":[{"id":"eswariboopathikumar","name":"Eswari Jayakumar","image":{"type":"image","mimeType":"image/png","src":"/assets/static/eswariboopathikumar.dea1acb.dde169cbb22201165b7439b3decfcd9f.png","size":{"width":64,"height":64},"sizes":"(max-width: 64px) 100vw, 64px","srcset":["/assets/static/eswariboopathikumar.dea1acb.dde169cbb22201165b7439b3decfcd9f.png 64w"],"dataUri":"data:image/svg+xml,%3csvg fill='none' viewBox='0 0 64 64' xmlns='http://www.w3.org/2000/svg' xmlns:xlink='http://www.w3.org/1999/xlink'%3e%3cdefs%3e%3cfilter id='__svg-blur-ea57635d54ff29a6ea633827f1c6cf7a'%3e%3cfeGaussianBlur in='SourceGraphic' stdDeviation='40'/%3e%3c/filter%3e%3c/defs%3e%3cimage x='0' y='0' filter='url(%23__svg-blur-ea57635d54ff29a6ea633827f1c6cf7a)' width='64' height='64' xlink:href='data:image/png%3bbase64%2ciVBORw0KGgoAAAANSUhEUgAAAEAAAABACAYAAACqaXHeAAAACXBIWXMAAA7EAAAOxAGVKw4bAAADC0lEQVR42u2by2oqQRCGjcZAwBfwAllpvEWfQdx4z8JXCPgMgguFmIXLbDSggoiPo5iNJARX2boRFW/ROnRDi8w5CrF7anrOzEARQlqr880/VV3VPRYw%2bGUxAZgATAAmABOACUB/136/PxgaAOZM6Zx3EroBcOxYOQlZDEUBWt11zWPAMendbgfL5RIWi4VmRvwr1YgCgPzz5CoUCuB2u8Hv94PX60Uz4s/j8cDT0xN3PLgoBjAAiUQCLBaLZhaPx7nuPrcCcrkcncj19TVcXV2hGfFH/CaTSVwFKAFks1k6EZvNhnrnrVYr/UkUiKoA5SNgAjABaAOA%2bVMCQM8CsilASgAkapO/i7Sbmxv63alUSm4A7E5VKhUYj8fQ7/dhOBxy2/v7OwwGA/j6%2bsKtBS4F0O12Va0K0avB3wJoNpt0/Hq9hp%2bfH2HG5iG9AlqtFh2/3W5VK4GlTIOnAOi6JWYCkOQRENUWQw%2bC5LO8JrIXiQKg0%2bmolv6kVgCzaDQKj4%2bPtH4nq7dLLZPJQCwWg16vR/2TVMirBF3WAsVi8a%2bYIjUAUg%2bQx4HX7Hb7YWktKqvoSgHMT7lc1pcC1AZgeAVID0B0N1gZAwyXBUqlkr4U4HQ66W6Oz%2be72O7v7yEQCIDL5YLX19fDOkAXS%2bF6vU7HT6dTmM/nXDabzWC1WgnbnkcB0G636Xj2OdGdIOkBsGpws9moUg2a/QATgMEAnDqiY6gYICoe6DYLiMoIKADe3t7oeJLHSQ4XZeSM0L/6jNKtBMl5noeHBwgGgxAKhSAcDnNbJBKBu7s7aDQaXKtClM1RNesC3t4AakdIVFV43B16eXnhyjC6rAaPfVarVTwFyHJI6hwAwytAVQAyKYB1hzQFkE6nUSL9uezy/PysHYB8Pk8n4XA44Pb2FtWIT%2bK7VqvhB0Hm5Pv7G0ajEXx%2bfsLHxweqEZ/E92Qy4dopvviVGZnKWrSOkJKyiK1uHmPLX3QFyPzKzG/PE%2bn6rbFT8j/XI1D%2b/l%2b8NnfuLhtCAezYzKkYdTxGCeAPBVajw1K4ycsAAAAASUVORK5CYII=' /%3e%3c/svg%3e"},"path":"/author/eswari-jayakumar/"}]}},{"node":{"title":"Add Prism.js – Syntax highlighter to Website","excerpt":"Prism.js is a light-weight, open-source, easy-to-use syntax highlighter that can be added to your website and blogs in minutes.","image":{"type":"image","mimeType":"image/png","src":"/assets/static/cover.4250cd3.4a3649779cdf1f4d77262064ecbc9b7b.png","size":{"width":800,"height":450},"sizes":"(max-width: 800px) 100vw, 800px","srcset":["/assets/static/cover.1b91758.4a3649779cdf1f4d77262064ecbc9b7b.png 480w","/assets/static/cover.4250cd3.4a3649779cdf1f4d77262064ecbc9b7b.png 800w"],"dataUri":"data:image/svg+xml,%3csvg fill='none' viewBox='0 0 800 450' xmlns='http://www.w3.org/2000/svg' xmlns:xlink='http://www.w3.org/1999/xlink'%3e%3cdefs%3e%3cfilter id='__svg-blur-0fb710f9d32f3a918e8ff253bb94c24a'%3e%3cfeGaussianBlur in='SourceGraphic' stdDeviation='40'/%3e%3c/filter%3e%3c/defs%3e%3cimage x='0' y='0' filter='url(%23__svg-blur-0fb710f9d32f3a918e8ff253bb94c24a)' width='800' height='450' xlink:href='data:image/png%3bbase64%2ciVBORw0KGgoAAAANSUhEUgAAAEAAAAAkCAYAAAA5DDySAAAACXBIWXMAAAsSAAALEgHS3X78AAAVIUlEQVRo3l1a%2bVtVV5bl3%2blf%2bvuqh8poRk1ikk4qMQ5xiDGWM6PMAiIggzIJgiggIPM8D4IMTjGd6i%2bp7q%2bq0lomcYg4DyAK8u65b/Xa%2b9wLVP9wvvvefbz7zl577bWHQ4jz6laYZdvgLN8N96NwuJ9EIfgfkQh%2bthfBNXFwV0Uj%2bHkMgqvjEPwyEcGNicCWFAR3piEYlYNgxjG45U1wazvh1nUi2NjF1Q3T3A%2bnbQhO1zCcnjNw%2bs7ADI7BDIzC6ea9mg6Y4jo4hyvhZB6Hk3UCTu5JOAXVcHIqYLicvCo4%2bXx/opnP69NnmvYhPmcc7pmLMMPn4bQOwKnvtn%2bbVAQnNh9OdB5Xrn29j/eyy%2b1z5Vnye0dO6TIFNQgxL38D543tcN4Lxfz7YZh9PwLPP4jCs49iMPNxDKbfi8TUCll78eSjWEx9EoepzxIwtSYJU5vTMR2ej%2bnkMjzNqcGzgjrMFtVj7lgz5qu7uGFurnuExo9y06MKgBrfQWCq22FKGuAUnrKbKq2HU9YEp6gWJp/GCDil/LyskSDy78cv0OCzcEbOwUx8C3fsItzRi3B6%2bXyC4xxvUuCc1BIYMTquAIYAmJSjMLmVMHknLciy5Df4Wy5/XwEwBODFu3swtzwMM%2b%2bE4dGbYZh8LRzXXw7HL/8ejqv/EoorvwvF5d%2bF4fK/huPyv0Xg8kuRuPJ6NK6%2bk4BfPkzG9bUHMbmrEI9SKzBT1Iy5qi44LYMeA7jJfrKgl687T1sQyBjZtDnaAHOMRla1WVBKG3U5la3KEqehRw0349/S8Etwzl/i9aICECQAZvQCn8dnVrQooIbGOYcIxP4Sev%2bIGmwKa2j0KWWaIRvkb8wxAsDfCTGvbIXz5g48e5MhsDIMQYaBszIc8x%2bEY3ZlBJ6tjMTMyr2YXhlDBnB9logn9P6TDamY%2biYT02F5eJpYiufplZgtrEOARrj0sKHRRowXY3s9%2bp%2besNehcYLDEKmgkcebreH1ZEwdQTvZat%2bfIkBtZFAbQew4bb87TO%2bPXfS8T0ac4Ro5b1nA7%2bizSGsNn/RjMATBpB2zoSVsYpgYsk0B8IAOMa9vQ%2bDtXXjyZigCH0fC%2bUM0XGpAgADMLA/H4%2bWRGg7O2ngENycB2w/AjcyGm1iAYFoJgoXVCB5rQFC8Sa8Z8WzroOdp8bylvnv6LNyRC9aI0%2bNqkBooxsp3hMYCXBOvEuuiIU1cEkZy7RgkcBMIjn2r1HdPn9NnyrMUJNEBYQz34hypsTEvTMgos4aTZUJ5U1irYWeO1uu9ELNsO%2bbf2okHy8Lw7EMaT%2bF7uiICt14Kxd03InBnWST%2b55924%2babe%2bFsToHZmopAeDacREsv50itpbHQlh41FEKNcTFePD8wppsU0bLCdU7Fy0j8ihflb0XIZImnKXJqtAAgQPLq0jgjBvJ5LgEQr7sEwx0as9rSb0U2IM8igKaxl6CSUcIm8byEmDiIVw0TWQwB0YEQQ/Wff2c37rwaiicfEIAvE3DvrUjc%2bH0ofvrnPbj/QQx%2bezca15dFYW4TAaD6O%2bE5VlwoVqaoTmNJHqb0bexR49XwgVGr2LLhUStartLWUleNGbAhYSRTiCcFNLLHNBGElgE1SDKMOUXvdp22tJdwUOMFYLsEAAVdWETtMY38noSVfE/0pbzZimxZk43/kkZ9HWI%2bjcL8h5H4jR5/9N5evFgdj/tU/NtvReHG65G4vzIW9z5OwM0VsXjweRJMWJZNM6SWIf2N0EnUXESopt2KFo1xaZQujd3zavgCCBrHpLII2%2bh5FTVz5rzNFmrcuDLC1Peo59X7NEYBELAEWF2e8cIA0ZxuT2TJINPQZ7/rg3eyDYYa4ce%2b77QQsz4B85/G4Do9fu/dKATW0dg3okj5KMysTsSLDckEIB6P1yQD8Ta3GuZbVdMCMkDyKfO0Q9EyNF5oK17V%2bBy2carxKgDQcDN%2bUdOYrnOyvoM5e0lV3gLEe2fOwWkfVACEBZpOZQlLeu0yfaOLxvd5AIjoShgpAD0aOm6dZYGpsSBITbHABBFBd9M%2bvFgVh19/H47bb%2b8Fvt6Ha69E4OrLkfh12V7MrE1CYFsari2Px2zYIbhiPOnvpJdpYaHeJ8Uk7tR4iVPxIo12BASPCUJ7hwA4NNyhsQ697tDwwMQlTW%2ba4sYtQ4QFAfGkGC9Zg0Kq6VQoLlc/tfYuAqKeF%2bNbLf2Xel8ZIFlCUmt5iwXhuA/A5mSl/c8EYJKxji3JmP6UQriaQFD4Hq9OwvzuTFx9Ow6/LE8AqPxqvKirKK08UH6kqVc3odSk6OHMBDBG1T5tYxznLgIXvlPaB89ag4P0Pv7ze%2bD8d8oICCsENBqMHmukFc2zmk0UADFUlgAgywdF7w9ZABp6NaWa2o5FEGo8LRAQKhZBCAl%2bsx/z65Nw9aUITC5nybvtAAzvubzObz2AF9vTEYzNw9zefEyuTcd8UglcKV0Psqg4WmdzrzLA0l82JOp8v/k0/lbWh6dtp7UmuFo1iJ9rhpnGLmJm6Bzm6ennwxfw5/JhPOg%2bi3mGyHTfOQI2oSA%2bbhy0KXR4QkNqqaHGL68XaD%2b0AIAjpTLTpoIgIeBpiGQnBaK6YxEArhDDvP6C6e3vpPyt92Lh7k6HszsDzp5MmPAsmL2H4cQXwGVhEcxhTZ3Jyuqgrd0lC7iiARJPgrSkMm4oyI0XbqnFSEYHToU34HRyCyp316MzoRl9aV0YzOjGpaJ%2bnAhrRk9aJ/5cNoTv%2bD7liyoyZxw3q/oR83EFHrUNA8PjCPQu9bK3/JDoXryvKVScoAD0qIaoBsjelA1LtECYoADQ0y%2b2pOLqK1G49QEbnvBMOJGHbCMhK6EQJrkYhrQPiPHSqEhzIVep4aXOluaCoaBqzVTm0jM5G2swltmB8j0N6ElqQcnWWtQSjLOHutCZ3I5LhX3o4rUpoR1PyIDvi/qQtrYal4/3YTSjHZlfVmOybkgBcPpHbLVHozXXC8212bJV4gI47bamUA0QAGSp8e0aEq6nC1owVdoqlBrAGP8qBT%2b/GoVJH4CowzD0umEtrYq/nzmfDFCvS5kpFZYY7y1tNFhZ6UP5I6CCH95QjYuHOoGhUfxXfhcaxPiMNgzub0VvUisu5XUBI%2bP4oaQfuVvqMJrdg4u53Ti2sx59%2b1rQQ7Zcq%2bwHVENs2vPFTikuYIuBkh18TfAYYQiMEQGlMC8woK5rURcYDtK0OawHQlymwRfrEvHLa1G4vZIAhB1kocNKLyZPqz2T7AFwoBQmg3GfVb4IgnifQigMkDJTKOWyFpit6UT1zlrcrOzDdPMgJtJaMbKvCVePdqEtsgH9CU2YyOpAXVQj8mh8U3wbxnJ68P2RHvSltuFPBKwvuRW/VA0AoxRAiqDr5X%2blfMuAR/Fu9bbfdhs/OwhIvCefBbXH6FChdqRO4ZIwmD54EgFbBzDXs8%2b/9sZe3GXB44YSgDABIN8CkFKsDYUwwIjyCwuyPRAEAKkGWV%2b7R23JiZo23C2hl6Pr0RvbiG4uMbg/rlHvDcY1YCC%2bCQP7mtGf2Iz2hBYMZXSqLvQd6MSwvD7Qhi6y5MpJhoCkS60nJjQ76DxA83wvguJRqRWavHDw9aHdMsDVarBb5xTGpz0Fe/ZIPR7GH0NAsoC7iSGwKRk334nB/U89AMItAIbxLy2lSfW6Kk/8dMBABgj1Tf5J24F5/XuACuuSZmhiKLDZkXDQ1Uo6N/dy9QAtvfa93Ce9MXZeDQVbXX09PEYxHGO7e8HrH87aJcWPX%2bVpoePFtSh%2b0xJN0HJ4wCuHuxfCQAGobMGT1HLcDT1iGeBuZRr8ej8m34/Do1X74O7xAIi1ABiywE2xIaCTGzW%2bUltM633beQkDcMIqa4AoB/iDAW4swI3NczO6uHFHlFkFivHZOoQAKTvPNAdtjgjCOGsFGvuCVR4WymUWUWx%2bAuz75XmOGtajnnU9cdNnivhJ/MvyukhtjOQzadIkXXN/DyKLcXtrrtcOs7uTfH//D4mY3rgfJpSpL8xqgIqgxL8wQAHwsoAY79Of3WCwuB5z7LFvH%2bLnzAbg5kCVRovdCLppTOcIGTEMl%2b9n2akJOI%2br25SyoMG3Gzs01m80d2GODZQURQ86CRp7BAECI2eBAd7vPIOgDFoWxM0HocsaKiCo4X0eAF5G4G9q600A7mzPx61NOeo0BSCwIx2P16Xgxc6DMEyBJiIHzt5cmwK17PXo71FfY99jQICGo7wNf00rQO76LfguOQc/5RzFj1mFGN%2bfhfaYFPyl4Dj%2bm%2bvHgjIEu0bQFJuMpphkdMUfwA%2bFvF9WgVNx%2b3CusBRN%2bzNwsegY/lpeg9aUdJzJK0Z3xiFMFJTgh2OVuHi4CHerWwnugBU0r9pTNiyERM/CWtoPaCVIAG5tPoSb67N1JqB1gLP7IGY2p7HwyVYA1HjJAjJXS6QO0PsBb56mNYCIoMztSP0AGYCKdvwp9TByN25Fzc5I1O2ORtGWnTgVGo3yXVHI2bwNJyNiUbw7HEHSvSY6AZWRcawHMpC7dRcK94SjODQSJaFRaElOQ1lEDHK377H3IqLRciAThWFRKI9JRFNyKma7GONS99d1L4SBgkAjdXlpT5lR6xvfvlD83NyQjRtrMy0DxHih/NzOLAtAmNQBh%2bxAURggdUCqrf/1KkD4k1XJ/VxgQXG3qArXCssxkZKp16mKRjzgulvZjOvl9bjb0IHJxnYEBkcxTWo/7ejHVM8QmpPSMJCWgykK42R1C5429eDbvBJURsXhTn07S%2bpuPGzrw722Htzn9%2bZYFEnIBCTt%2bV1f3ZJ6X5oev9ITo6vsexFnHZxS%2bK7T%2bOurD%2bosI0QMlpLXiaDRkYd12KEpULzvGy8ZIMM2QFoGH67QL0sh4dfUYI0NxvXTk80al2iyGoD20zZ22eSAvb/L2h6yJLYpcA%2b6BjHHKg/94wj2MiP0jWGKmeKJZAu%2bhtyTJc8YnIDb79UCHV632NC7SHGv4QnInmQK5O1tafsr9cr1LzJwbVWGZq8QE3pQhxyGtA%2bI8En6k3GXFEBS/EjnJ%2bovfYBUfRICwgKZscuPSDdItAOC9ClJf312riftMQUowLJVa3lpaIbGvFZ5goJ3XltkjF/S4UiAnwVkrEXjgmx0ZAX8EpdpLcD8v1gGDyyqvF/eyu/TywGZ/fEaLGtkaq6HW2anvzoPLLX3rn2ejmufpemskABkWgAibP1vtPortp6Xjk/WQs6vspWfP12VMBCEq2x1ZZXY5mR/6VhLylN/NihFjUyICIKMynTK6w1DZMxlR1vD/9j8%2bKWtNxwxS9Xd9z4d4bIOeZ5ejhvrMjGXXaXD2udpFQjkn9JspcMbpu3rq9IIwAEV9BDDrs/ZlaHx73je13mf0D7La3povCuGS//PB9iH1erJioIg0%2bC6JWmo0dugsEDnfCN2MOJ7f2BxUiw53l0YhHjlLr1vlvT%2bxve83%2bb66l7b6c37WuxQlnsLFlbh7yv2Kc0dVqh3mO9vrj2Ih6EFmElkK19QpQBcJwDC5hBnO6mw3Q46ddbHJshJWWSA0l4LHnuUpFcBwSuADPVAj5m4EWWAb7jM9U96QiSCNeQdi/XaUbkrbGBxI8NRGZPpnFBOfSRUvD5fQDB%2bjd/lNTlezKvSk3VW3Jr1tEeKsyD3MxN9BDfWZKhzpuNL1OC/vR6HyQ2ZCBacxM3VabjxeZpmsxAZfuiSdChsECZILUAwTMIRK3yS82m8IGoKTimKUgIrMPKZgHGyzeZgOdwo9Y685LPDLJVPNNlpTeewbVf7/aGpPeywg9JvbUgIAGKw1PPtNt057Utif6HD81RfvC9aJPvTA5EyIOs4Hm3Lwf0duZhLP46p6CL8ti4Dk%2btZ5bKhk%2btvBEG0LMR8lQyzcZ9dXyXBfJ2iYGhFKAeMcryUbY%2bXzJE6pZnj60G%2bNxSVxXgzMhmW8bNoBqtGqRy1ZpC0KZsVw0QXeryQGPIOTGRgKsZLeEjD4w82dfUvxny9V/9rjpfU124PTmUyJTWKCDaFe/KLA7j2YRIebM7EnY0HNSTufZODe19na2jf25yFWwREQjzEbEiEWZdg15dcGwjEZoLC6nAhLOSISQyRHkBOYb1aQFkgXj7kDUekSizwTmC1WKpePPGVsJBWtd07MZbTYklp4vEBb/CpWWDEzvXEaB%2bEFj/%2be/6xuam2AOjzRbMkbbNwe74rG7%2b%2bG4cbHyXh/sYM/O9rMbhFUO7T8GBmGR7tOIw7X2Upu0PMWhq92ltrvcX2WEHYlmbDQiZDcvQsS7Qh88TiQERTZIUtk0UzpGz2hyeiF0w7GgKtA0va1aGFSY6NdU/1l4qdaknfPwIh6bXBCzOd8lIARfwIckD2xVQu2WxuB4uxFfH46eVo3F2XhvubDuLO2nTMxbKxo9HPIvPxYAvZsL%2bUAIixYvQX8TCfx8Gs4nVNApz1vC/hwV5BwkHHZDokKVwUyHSvQBIAfBCkeZI2mqlUT2MlPOR/ASQdinHizVa7JM7nKWyS43We1zLw/%2bjueVuzS68emGqYsaV1jzdqrg%2bW1tvzyQMlQEwuwCpWlksgZsmEqW3ZeB4hDjwKV5q6JO4rvhBTW7N03hGilP/S8/zqeAvEmnh7b2PSgkAaKZnZJBn/YETCwkuXOigRMNJKtXvUekLP5ostMNQFaV6eMCtcSs/Hj2yWbINUhr%2bwGfrh0FFcOVKhnaLjT3M1v9Ng8bScOMt7MulFZgWeJZdiOrYYjyML8WhPHh5uzcYDUv3B2lQ8XL1f1yO%2bntqcgentBCD0MGYjcjEfWwCXjnFZ5Mm9QFQuAaDoOSJ8f0y1AugLIhngMAwc3nd2pttiSc4EpVqUQknCwZsZCqLaOfor6rBljDBBwCk%2btTDDe86iZZbX6YYuPG/pw4uWfszR27IW4txrZDTOqfIBiu/znCpMM48/3JmL25uycOOLNPz6UQquvrcPV96Ox5Vlsbj8arSuK69F4%2brr0fj5rTj8uiIBv32SgnsbMvBk%2byE8i8gjEIUIEAwJmRA1fEeaelgLIol5CqBqwJYUBUC9L8aH5Wi/INlBjRSBlLCQ2JM%2bQrrIvXm2qYrI1prCkJoiknp0Rg%2bLl12GQbBtCK7M7WSKzPeuH%2bcy7Kjr9FS%2b057nFdRiPqsCc6nH8HxfCZ7FF%2bEZ43kmrggz8cX2GsP3pPoMPTuzIxszf8zEzLZMPOP7Z%2bG5eB6Zh9mYQswxFAKppZa93N//AZuVQ2k4wJ/fAAAAAElFTkSuQmCC' /%3e%3c/svg%3e"},"path":"/blogs/add-prism-js-syntax-highlighter-to-website/","timeToRead":1,"humanTime":"20 Apr 2019","datetime":"2019-04-20T00:00:00.000Z","category":{"id":"Blog","title":"Blog"},"author":[{"id":"eswariboopathikumar","name":"Eswari Jayakumar","image":{"type":"image","mimeType":"image/png","src":"/assets/static/eswariboopathikumar.dea1acb.dde169cbb22201165b7439b3decfcd9f.png","size":{"width":64,"height":64},"sizes":"(max-width: 64px) 100vw, 64px","srcset":["/assets/static/eswariboopathikumar.dea1acb.dde169cbb22201165b7439b3decfcd9f.png 64w"],"dataUri":"data:image/svg+xml,%3csvg fill='none' viewBox='0 0 64 64' xmlns='http://www.w3.org/2000/svg' xmlns:xlink='http://www.w3.org/1999/xlink'%3e%3cdefs%3e%3cfilter id='__svg-blur-ea57635d54ff29a6ea633827f1c6cf7a'%3e%3cfeGaussianBlur in='SourceGraphic' stdDeviation='40'/%3e%3c/filter%3e%3c/defs%3e%3cimage x='0' y='0' filter='url(%23__svg-blur-ea57635d54ff29a6ea633827f1c6cf7a)' width='64' height='64' xlink:href='data:image/png%3bbase64%2ciVBORw0KGgoAAAANSUhEUgAAAEAAAABACAYAAACqaXHeAAAACXBIWXMAAA7EAAAOxAGVKw4bAAADC0lEQVR42u2by2oqQRCGjcZAwBfwAllpvEWfQdx4z8JXCPgMgguFmIXLbDSggoiPo5iNJARX2boRFW/ROnRDi8w5CrF7anrOzEARQlqr880/VV3VPRYw%2bGUxAZgATAAmABOACUB/136/PxgaAOZM6Zx3EroBcOxYOQlZDEUBWt11zWPAMendbgfL5RIWi4VmRvwr1YgCgPzz5CoUCuB2u8Hv94PX60Uz4s/j8cDT0xN3PLgoBjAAiUQCLBaLZhaPx7nuPrcCcrkcncj19TVcXV2hGfFH/CaTSVwFKAFks1k6EZvNhnrnrVYr/UkUiKoA5SNgAjABaAOA%2bVMCQM8CsilASgAkapO/i7Sbmxv63alUSm4A7E5VKhUYj8fQ7/dhOBxy2/v7OwwGA/j6%2bsKtBS4F0O12Va0K0avB3wJoNpt0/Hq9hp%2bfH2HG5iG9AlqtFh2/3W5VK4GlTIOnAOi6JWYCkOQRENUWQw%2bC5LO8JrIXiQKg0%2bmolv6kVgCzaDQKj4%2bPtH4nq7dLLZPJQCwWg16vR/2TVMirBF3WAsVi8a%2bYIjUAUg%2bQx4HX7Hb7YWktKqvoSgHMT7lc1pcC1AZgeAVID0B0N1gZAwyXBUqlkr4U4HQ66W6Oz%2be72O7v7yEQCIDL5YLX19fDOkAXS%2bF6vU7HT6dTmM/nXDabzWC1WgnbnkcB0G636Xj2OdGdIOkBsGpws9moUg2a/QATgMEAnDqiY6gYICoe6DYLiMoIKADe3t7oeJLHSQ4XZeSM0L/6jNKtBMl5noeHBwgGgxAKhSAcDnNbJBKBu7s7aDQaXKtClM1RNesC3t4AakdIVFV43B16eXnhyjC6rAaPfVarVTwFyHJI6hwAwytAVQAyKYB1hzQFkE6nUSL9uezy/PysHYB8Pk8n4XA44Pb2FtWIT%2bK7VqvhB0Hm5Pv7G0ajEXx%2bfsLHxweqEZ/E92Qy4dopvviVGZnKWrSOkJKyiK1uHmPLX3QFyPzKzG/PE%2bn6rbFT8j/XI1D%2b/l%2b8NnfuLhtCAezYzKkYdTxGCeAPBVajw1K4ycsAAAAASUVORK5CYII=' /%3e%3c/svg%3e"},"path":"/author/eswari-jayakumar/"}]}}]}}},"context":{}}