{"hash":"d624f268515278f2a159283644e4191904732a22","data":{"category":{"title":"Blog","path":"/category/blog/","belongsTo":{"totalCount":16,"pageInfo":{"totalPages":8,"currentPage":2},"edges":[{"node":{"title":"Automating Software Installation in Windows Using Chocolatey","excerpt":"Installing required softwares in fresh installed windows is time consuming work. Chocolatey will install all your software in a single command. You just need to find the package name from Chocolatey and execute the command. That's it. Chocolatey will take care of remaining.","image":{"type":"image","mimeType":"image/png","src":"/assets/static/cover.3409214.f9e0abb270f9a613b4804e71cb68ce46.png","size":{"width":556,"height":312},"sizes":"(max-width: 556px) 100vw, 556px","srcset":["/assets/static/cover.3409214.f9e0abb270f9a613b4804e71cb68ce46.png 556w"],"dataUri":"data:image/svg+xml,%3csvg fill='none' viewBox='0 0 556 312' xmlns='http://www.w3.org/2000/svg' xmlns:xlink='http://www.w3.org/1999/xlink'%3e%3cdefs%3e%3cfilter id='__svg-blur-18ca322cda6cf0b59a92d476c0221eb2'%3e%3cfeGaussianBlur in='SourceGraphic' stdDeviation='40'/%3e%3c/filter%3e%3c/defs%3e%3cimage x='0' y='0' filter='url(%23__svg-blur-18ca322cda6cf0b59a92d476c0221eb2)' width='556' height='312' xlink:href='data:image/png%3bbase64%2ciVBORw0KGgoAAAANSUhEUgAAAEAAAAAkCAYAAAA5DDySAAAACXBIWXMAABJ0AAASdAHeZh94AAAJk0lEQVRo3u1Z6VNVVxLPnzFVUzOTyWIIYohLxn1neyCCbLLvOwICsvPW%2b%2b69DxCDsqmgxl0TwYiCoCIx41LJ1GTyQROTsszgHuMyUzU182E%2b/KZPn/fwIbjE1PiYST50nXvO6e7T/Tt9Tve99xVHyDv4OdMrLyKkizZ4Grd6iC/0Fe%2b%2bdHIw0drBZAPZ8lIBcDnvCHob9QFvwuH/Ohx%2bP4Veg77890SvPbeM4NX9ae0Q6fyLgvCCEeCLenLelBaLdTU6LHoHlKbtsK3fBuUxsjZ0MikTzAmyNXbB3rQD9W37oDXvor5rXM4p67dPKNPcvhfNqu6ZCGAAaOerSiqR3XUBtUevwXLqIcwn7sN80o2or579J%2byf/mP8HM/fY7navtsIzO1E5qZzsA3/HaZBMf4A1qGHMA7cHSdrGvwBbX/%2bNzp6LngSgCmoLi5FbvsQ6g59BcuxazAf/SvMvd/BdOQ7frb2XUOK7WNkNhyHtf86j1mcPOLZdOQqlIGbSFGOYI6hCosiLKg/84DnbcdvIGLtdiRZuuEYvse8lmMjUrb3KlrP3kf7gSHPRkB1cRlyOoZR232ZHLwB09ER2AZuQT11F%2brQD8hrOYOps3MwJ7gGyonbMPWS8wSUeLYev8kkxrI3DCFN78OqtTtQ8sEXKN35F6yu3o9p8/IRUfIBynZ9ybzGjwmwE3cYvLbzD9F%2bcHhyAFDX/Q05dp2NK997EYmWwyjZ8QXyW/9Iu7iDndE/ecDg2GjHi7s%2bR23PFaTYjyI0fwuiK/YyJVp6kGw7gsDU9xFTuQ9pjn4YMjbBP7mJeQs6zqGg/SyMFA1t5/82eQCoOfQ17/qajvO029VkbC8C05oRW3MQKwu2wtJ3nYGJN36EjMZBpGrHEJq3GXG1H/KuL4pSEF2%2bBwsjbPBPauLWL7ERq6v2Y0G4mUGavqQYIdltWBxtZxBbzz2YRBHQ8w2H9oxlJbxDwuEg2jnh1NLVGuLqPmIw4o2HuB9ZuhNB6Rsxy68MqeoxZDQM8pzYYcFX1PkZsppOMVDhhduQrPQyWML5sELKGifvoOXsJAEgu22ILqxrSDB1Y16oERX7LnHI5mwc5p1dEqMiqnw3Zi4vw4qcdhRt/Qwh1NYc%2bpbujisMljJ4m4%2bPIO30PT4q4uwvi3Mgc/1JpDuO85yIlqwNpxiASREBVZQFsikL2PqvUciux2xDNSr2X0J%2b21kEZ7WS8xoSzD18yRVuuTB6iWnD9/nSFGTm7DHCZOod4bGKfRfx6pQYeM1IR2z1AQZDHIvwom0Mjrg4J8ElKNOgiABr/wiH5q9%2bHYJ5K43wmpmB5QkNnBWqDl6mHfue0t0tWITDwlHhsHDcSSIK3PvCyeKuP/E94Z%2b0ntvcTWc4ezDvaBY4zc57sBAqR077aRgPf4vKg1/zBfi6dzxfYMJRG%2bV%2bkbuFw6a%2bmzwm6gBRMzC59c191%2bWYEwxl8BZ0ihSRPRxnHsIu0h/VAK46ok0cgQ8/ke8jHgEgkCIgJws5Wz5F7eErvMMmMqxy/0U23jJwmys288kH7JS1%2bxLMg3dlNdd/UzpNlaDs35BAMBgjsuDpu8GhbuLC6ipMx%2b%2bwLuYfoDvg83%2bhfd8gdMNU%2bV7yUgGgc1dPbd3yt7AmLQN1B76Exemc9bQoZe/C0v0VbJuPwFZZi43F6WjMioIpOx1Ky0FYKGKE80rDFthrrbBQZWcWpbQoc6n0tQx8D0vPZY4Kc/8tnrN2nYC92gQbvTdYdp5BBzm/dW2SpwCYJgHw80bxvN/Btmo%2btOxEKGYHbPVboRbmQY9eDEfgW9CW/BZtcfPRmOgH86LfoIGOjhYXADUrgea94Fj2KrSkUNia98BOLzpNehOMaXHQI%2baxPhEJikmTTvrJt0Xd4IOu3DB0ZoV46Ai4APAnABZ7QQnwkq/FbCCR/xv8qize2VXDNLQm%2b6ExOQhm4q8PnU5z5Ljgp6PkWDGdgdDJscbAN7El04C6pW/wERNHTYsPkvqCfeAQsuJ7AK3flR%2bBzrxVHroE3QFYNAXWQBmGGh0NzdWyYT6w%2b3uhJWEpGpMCYVo2hb8laEzEQzvJJPoElACnIz8KdQHSKTGnU7YZwysoaCq68giA3HAPA%2bD3NooW0E6Gv4cNUXPQFDmbaM4Yagyfhc0ZBgIgAPbgd/F%2b9NwJ%2bZoiZqM5Zj46yDGTgfiinONRcyfk3VYQic6cMM8CUEsAOGKXYndZInaWJDyB4rGnPAWbMkLRtSb6qby7y5KwtTAGrZmh2LMuiWWfpHNXaSJHgMMTd4Bc1Af1YbPQkW5AR1oQ2lMD0Z42ATnHW5L9x/SfxNeaEoC21MBn8nakB6Elcdl/B4CxHz2dCzzWd/GI8ziGDFPHj/G4z1ge9/7T5J%2bkz6lz1KbHbXb/dvljAHhckcOZZ0e/ALst8Ei5L3%2bhZRK3teiPkpPH4CNbF4/BW37ZdclPSO849TnlXOPuz2Sf0OVuo5AZZ%2bcTwHgqAOx82B%2bk8WIhyutsuHNRTnUGn0fPNK%2bvnOUcd/IIB4RB4bOlTsET9h70GArfgClOMKZKEnJM3pKEHS45kTqZx/uRHcQr6gWuOYQdQjZA2DDzkV6njS6/ng7AaKj7yiImNYIqNQsr1FfNhZaxGnrkQmlUxHxaeAk7zHOxflTcxLOMMIidFDyU5wWf3ahAS4ti/WpRAew1FmjJYXJ%2b1RwGWo9aJGUjSS5qMQOkFmRBzYyVPLSOHrVQ2iGeiVddWyQLL7ZnsdOGSNKxQNogbKTWFRXPBECi7c2CirqRDLdDIbKXV1ApamRHRPkq5pT6zbBXVFLFpsu5ymrY162DorfxsxjXElcw2WtMsFfVsT7WVVbGMoqlnp5LqdpTnXpMUr9R5R1U8zOgWBuIGmmtKkliLcFDFaK9tAT2krXSRhqzV9aQDeVST53Cn9C1lHAGU3c/khMB4H7uxe5oCcFQ12TzIgJZNTOO%2b2pmPO%2bCaNW8dNqFQqg5yZKoJNbSo5lPGK1TcSOiQhOy2Um8W9wnUHh3SVZLDif%2bHHKkGNpqP15Hy4jlP0BaegxHjtCr5qVJXrFmUT7LqLkpRKlQiwslDwHGduZnypbG%2bIgEeT9fBLiff3nOvMee/dFz6k5ebvPeEm06JlzG8riPU48XA6KHzhivW7wXuO4OZ%2bv6%2bzR6L7hkXHfO6H3hfHa3ge8kp063rPV8R%2bCxdDL%2b9n92nxcbczu7jY/R7%2bvW%2bj41rf04G8aOPXcW%2bKk0Lo0%2b4/l/8u/wz/73%2bC8A/ALALwD839B/ADzmmGxCZMaYAAAAAElFTkSuQmCC' /%3e%3c/svg%3e"},"path":"/blogs/automating-software-installation-in-windows-using-chocolatey/","timeToRead":1,"humanTime":"01 Aug 2020","datetime":"2020-08-01T00:00:00.000Z","category":{"id":"Blog","title":"Blog"},"author":[{"id":"kumaravel","name":"Kumaravel","image":{"type":"image","mimeType":"image/png","src":"/assets/static/kumaravel.f26c338.62b7462775409c8a2ece49d93896682d.png","size":{"width":50,"height":64},"sizes":"(max-width: 50px) 100vw, 50px","srcset":["/assets/static/kumaravel.f26c338.62b7462775409c8a2ece49d93896682d.png 50w"],"dataUri":"data:image/svg+xml,%3csvg fill='none' viewBox='0 0 50 64' xmlns='http://www.w3.org/2000/svg' xmlns:xlink='http://www.w3.org/1999/xlink'%3e%3cdefs%3e%3cfilter id='__svg-blur-acb62cea0c5ba9796bef793e28a4ac1c'%3e%3cfeGaussianBlur in='SourceGraphic' stdDeviation='40'/%3e%3c/filter%3e%3c/defs%3e%3cimage x='0' y='0' filter='url(%23__svg-blur-acb62cea0c5ba9796bef793e28a4ac1c)' width='50' height='64' xlink:href='data:image/png%3bbase64%2c/9j/2wBDAAYEBQYFBAYGBQYHBwYIChAKCgkJChQODwwQFxQYGBcUFhYaHSUfGhsjHBYWICwgIyYnKSopGR8tMC0oMCUoKSj/2wBDAQcHBwoIChMKChMoGhYaKCgoKCgoKCgoKCgoKCgoKCgoKCgoKCgoKCgoKCgoKCgoKCgoKCgoKCgoKCgoKCgoKCj/wAARCABSAEADASIAAhEBAxEB/8QAHQAAAQQDAQEAAAAAAAAAAAAABwAEBggBAgUDCf/EADcQAAEDAgQDBQcCBgMAAAAAAAECAwQAEQUGEiEHEzFBUWFxgQgUFSIykaFCgiMkM0NisVJywf/EABoBAAIDAQEAAAAAAAAAAAAAAAEFAAMEAgb/xAApEQACAgECBAQHAAAAAAAAAAAAAQIDEQQxBSFBcQYSMrEiMzRhgZHB/9oADAMBAAIRAxEAPwC1NKlSJtUIauLS2hSlqCUpFySbAChpmjjNlrBZCmIynsSdTsoxraB%2b47H0vQ29pDiBJ%2bLKy5hzy24ce3vYSbc5wgHSf8QCNu01X5%2ba%2br5krukfpA6UMhLcYJx5y1LeDeKMy8MCiAl5Y5jfqU7j1FqLMSSzLjNSIrqHmHEhSHEKCkqB7QRXznkv%2b5q1P35bqAdj0Pb96M3s6cW3MKxSFlLExzMLku8uM8rZTCldAe9JO3heiAtxSpA0qhBVg1revKWp0RHix/WCFFH/AGtt%2baGQ4KfZ%2by/LzXxHzIllSY6G5roLhBN7GwH4rGG8IJTiRbEWz33bNTxiLIkyMTmNvKE2a4lbjhSAdYT8xA6CmLEbNcZanY%2bLuIbQNWh%2bz2o3tptpFtt738KwSvlJ/C8DSOljFYkssaYbwiwXD0B/EUO4jJTuC6ohCT4Jrh5myqXsyYD8Mj8px2czHc0JsdCnE7j7VNcwSswTYsWNAniK662VLWlsE3HYO6/fvXFw/B8SiO82RLlKfSpJbcLyydexuL9CFdDVddjclNsunSvK60i096zemzWsNoCzdYSAo%2bNt63CrU0EuDa9ZTWtbA2oBYJszYF8AxjmMrKo0pS3U3H0m%2b4/Nc%2bfi8JnDX%2be800sIJ1KNqkvFnFo4gGKwoOzoim33EI3LaFagL92qx28KDa48PGH/AHpSQ842nSlKllOkXv076X31KMsrYa6a1zhz3HUHO2Hv4hhyHVMNBvVqXZQB8N//AGpfBQjMuNQ4sN4hpxWsuo30pG5I%2b1QeYyiQxyZGGMx2U9VGVrCvS%2b1EzgPh0RjB3pTQGvUqOwk9jaSLkeFyB6UaqVKSx0OtRc4QeeoVx03N/OsUr1i9MBOcrMWZsGy3H52N4gxETa4StV1q8kjc0C%2bIXtEttx3omUIiw8oFImyQPk8Uo7/P7VXrFcbnYpIcfmyXXnVm6luKKlH1Ncdd1KVckm1aVXGP3BkLfAfMj87Ps%2bDjD7ks4yyeYt5ZUpbiSVC5PbYq/FE/NnDx6MVy4rjrbKt%2beyL2Hcodn%2bqrFlbElYLmXDcRQopMZ9DhINjYHcfa9X3axRrC8IfnS3Erw9pkvlz/AACdX5FU3UqyOdmi%2bm91vGMoCWWcjTcXnJje%2bOSkjdaijShA71d/l212uMeNO8NpuS2suLS2YzUnUhYuHUkt6tY8Tf16dKmvBvN7eYoc2O6yyxMbWXwlpASFtqO2w7U9D6UCvajxHn8TWIwJIiwUp69qlE1zoK02pN5O%2bIOcZOuSxgMOT%2bN2W8bLTGKFeDzF7fxzqZUfBY6fuAooMutvtIdYcQ40sXStCgpKh4Eda%2beSX/l7rHapTlHPmO5YeBwjEnmG7/M0TqbV5oO1MZaOMvQ8C5WtbkEB3t31kJupw%2bVePMCHEFYBT206KUpN0kgHuO1VRWS1sbOJsQattkXMrDnA2DimJL5zcRoxXGyd1rQSEJPn8npVTnRqTUvyhmCUMsycvav5RUtMy1/1BBTby6H0qq%2bbqrlJdC/SVK%2b6Nb2bCdwkxpGC50juy1paYdQR3ITrO4Ph0t3VAeOeIe/cU8ac1agytLIPkLn/AGa6wUlLDbvalNqGU59UiTIecUpanHFKJUbk71j4ZY5Zi%2bnMb8e08YONi68v0eK123FOWAVKG9c4oKiUlRNulekQFLqSronpTmEnk821yPB2nDO8du//ABpUqzw3Za9jdf0U/wArbYkbd1KlVWr%2bVLs/Y06D6ivuvcm8hSvh6tz0PbQ1/sjypUqwcJ9UuyHfiLav8/wwPrHkK9E/R%2b4UqVO47nl3sf/Z' /%3e%3c/svg%3e"},"path":"/author/kumaravel/"}]}},{"node":{"title":"Debug device specific issues on your website - Remote debugging","excerpt":"Fixing device specific issues using chrome device tooler, chrome remote debugging and online real device testing tool","image":{"type":"image","mimeType":"image/png","src":"/assets/static/cover.771f6be.183632b45a4bb11e605dc4e16a1fa5e0.png","size":{"width":560,"height":315},"sizes":"(max-width: 560px) 100vw, 560px","srcset":["/assets/static/cover.771f6be.183632b45a4bb11e605dc4e16a1fa5e0.png 560w"],"dataUri":"data:image/svg+xml,%3csvg fill='none' viewBox='0 0 560 315' xmlns='http://www.w3.org/2000/svg' xmlns:xlink='http://www.w3.org/1999/xlink'%3e%3cdefs%3e%3cfilter id='__svg-blur-e99e63507e0b35acae345b7af9efce78'%3e%3cfeGaussianBlur in='SourceGraphic' stdDeviation='40'/%3e%3c/filter%3e%3c/defs%3e%3cimage x='0' y='0' filter='url(%23__svg-blur-e99e63507e0b35acae345b7af9efce78)' width='560' height='315' xlink:href='data:image/png%3bbase64%2ciVBORw0KGgoAAAANSUhEUgAAAEAAAAAkCAYAAAA5DDySAAAACXBIWXMAAAsSAAALEgHS3X78AAAKuklEQVRo3u1ZeVCV1xVn2pm0zUzTaTuZaWfSbKbTSWpnGqOJlsRUZashMpiI0aoxpFFi4hbFqEFcg4qCCftjeyyPfYlo0GgUkOXtO/sqwmORRXgIYhD49dz7Fh9bIqT2j5Y385v7feeeu5zfPefce79nJ22V4f8ZdrMEzBIwS8AsAVOiRcohsTwbJPdhK2cY11ZilrHyx8K2vwftc3yb6REw3vBmianjDhUkXRpIOlWmuuapiZjOJKbCZMaMl7GxZe0KyAmsZHKxYaLutAmwGMU6EPfoIG2TQ669AIU0G3JNLtXJuFwynqxxJMja5TQhCUqaxSgxMEisEH8PmK6MxmSQTOFhig4l5G0yFDYUIr82HwV1BSSXQMkW6AGJt/te16XBpbTqmvRgVG7yQM0br6F2yXzULH8Vle%2b/Ba0oEBJiXUJGSg02JPBVkEDVrUZA9Gns2L0Ve329sWvvdmzbtQUf7fDCxzu9sGW7F7y2eWHzts1WWN637PwIHus8kJyXAs0tLe/PMi/2rO7WIPFyEtxWe8BphStec1hG%2bDvslyyGX8RxaHuojdlzp%2b0BlkYyWmW1z4eoXTgXdYtfRI3DQlQTapYtpPd5qCN5%2bacfUCiITSRYBrNOUo0Dx31x/lwBKmvboa0wQFtOqGiGrtKAssp6NNTXo7GhEdcbrqPpRhNaDC1ovtGM3p5e%2bB/3R1BKEEpvl3EPssythAzT92pwKiMZ87wzYX8sDwsPXcbLR/Lwwu5cePp9AW2XnIfCtAiwxgwNUNKrQ97JnVD9%2bUmUO76C6qULUGs/FzccX0Lt63NRRZ5Q7WiPmpeeh/7gdog7NTw5WuJSQoMzDzgccAR6VSWMfaNo7RhBVw/QcxsYGCL09aP/Vjem%2biXExSM4LQSlfWXW1TSFkwTaWyoEn8vAliQd9l9qwvrMLqxM64OzsAs7BUlQ3xRD3CKbvgeIqYG2TYm4hotY4uOC4leeh%2bZvc9HgvgR1MdG4lnEN1dlxaAlZhubAv6Az4mUYBS%2bitDoZJe1EQos5MZpD4OBJXzTWN5hNGiGMmkEEdHfjuk6Pzs5OjI6OYmRkhOPevXu8Pl5IBKQGQ9erR/GNEp5PTOFAc%2bxWkAekwPmMHh4JBrgJm7EqoRnLQ2vhLUiApoORJZu%2bB7DkVN6pxUcFZ2AX%2bxZ83lmEioUvQPZ1IdaJgNdODGFVFKDUKwHJqxgWLwKk89Batg/FbTorAZYc4HPCh9zcRMDw8Ag3lIPeB/v60N3UhD4q2c9SNzw8zN/jYoUISQ/FdTRSTOtwjZJdUl4yioiMmrvl%2bPJcNpyCKrFa1AbPyHKsSWiCS0QjdhMBakZAy0wIIAN0N9VYeeEg7GLexpxjLpBuX4%2bjZ7/DvH29cPYzYv7%2bXnwiGsZo1R4MS14G5PboLfVESZtmDAEsUX3mtx8NdSYC2OpajGS/u3cG0H/79gTXZ3rsJ4yJRUBCIPyFpxCWGY6jYUdx4AtfpBVnIledg8DsdDiFVGPvlwUI8A6Br38ulkdcJwISTR4wEwLEZICWCHAjAh4RrMRPBO7Yn7APfimD%2bKuPEc4n%2bjDfpxcfx9/DaO0BjMpfIXewh1G/kQhQTyBg37G9qK%2btn5QAo9GIm23tuE0k9Pf385KBydkvShDJjX9320ZEnY/mJLCccCLGH4mXiBxGQHAVDpHhp3cE4vOjaXANr8euH0MAC4EyCoH3r57CTyPc8Vj0O3gyaQNE0iqs%2bxJYfHgA7gHAFeV1oNQVI4rFgGIh2iv2UAhoxxJwS4NPj%2bxBXW3dpAT09/agy2Ag4wcwODiIO%2bQRd%2b7cwcDAAK8PCwlDaEYoBcANTqaqS42Mkkx8HnkcpUYNhUAWHL4oxwZhA3YFXMV7URVwDicPiEiYGQGmJGjygJiybDwatQq/iV2LnwnewoKsrQiRFkJwrQEn84ohK/YEVIswrFpGBCxCZX0cecBEArwPeaOmqoYbNDQ0xOObgZFh7O1FR7vJAwbv3sV3Q6NExHf8nf0E4QK%2b4lrakVgSZMawQ46aEqHulhJncrLwDwqB1andcE/uhkdKF1yjmuEdKZp5DjCFgRSadhXccn1hF7YCjwv/iZ8L3sZjlBQfj1sL%2bxAn9EvsAbUDxf8CdOs3QdzKjqHS%2b6dH2qrYiu05vIe7%2bYP8Ro2MqHvW9/TUNH4O0BtL758DaAdgSVDfo6YckIbXjxXBLawMbwZp4Baqx1J/JT4JjYGmUzb9c4DtViinU2B%2bUxHssz7hJPwyejV%2bHbsGdgHuuHzRCdCR68sWoE%2b7FormPCJAaTbe1If8pgLlg5XY6bMDhw4fR0hUMkQikRWJiSIkJCTy56TkVMREBmH/vtWIDPOHKCkFWVlZ8NrshcicKFQN1Yw5oJU0iVE%2bUI6DQUfxyKO/xe%2bf%2bRMe/8NzvPzFr36HdR9uhL7PRNq0CbA0YCQo2hQopjP5h/mBmCPyhF3wSqwXkvHqV3FHtRzNFQcgMxSZjZeMOUaHJ4ciUHAKW7ZuguPSJXB2coSLkwOHs6MDHJcttcJh2RI4OTjgjeWucHF2tuq5kJ6v32cICD%2bJjIJ00xnffK/QGfUISg7CnGeexh/nPItnn34Kzz37DJ564gnsPrKL18%2bYAFsSZFSWdmhwpfEaBNosFFYloqoxFbKmq3zfl7TKTcaPu0dc1F5EjjQH3%2bi%2bQX5VHvIqxyK/Kn8smLziCtVdtdG7ilxVLvVzFnnV%2bdaLkXV%2bFGZfay5QYsxCSkEa0osykaM4h8LG4ikvUQ98F7A1hp0NWEjoOmibo9NecStdiVnMt4y7DtuQoKDVYjmAlfKbdGvrGAcmozCxokM5KdiqswMVu%2b5KJrlu86RIOwRLuJadwtb4mV2HbYlovf%2bRoYS7ucRquO3lZ9KPIIb/IKb4HjDZVXoy3dlPYj%2bWgAmst5hhsCkNY98tJ8sJqzRFuzF9j9dv%2bR6dlokr/1A%2bivIvPJT01HT1Vd6k2KScwJ552aEZ866h06ScdhGmZ6kzye/XW0pLG5ZwtV0kZ21IZmnH%2brCMp2hXWmWs3jouy08z%2bARnN13jC28UIVGWhCzdV8jUZkNEz6xMVqQiVZWOJEUK0jWZEIrj8W3tFXylP0t1JlmqKo30k7l%2bvCSR68eWCJEkT0aKMo33HV0Uy/tmY6QoU5FB7c6W5vB%2bmH5u5UWkqTJIdo6PlUYyps/Gv0btHzT7T5sA5mZsVdgktkRvhXfSXqzwW4m1Z9bD4/RarAlchw8ivPDGUTdsCPaE6zE3bui%2bVB8uWx%2b0Ed6iT%2bFyxBXvh2/Cm37u/H1vyme83c743dw4B18XeIZt4jrvhX6At0%2bthieV/wrfTHeRjXxcVvpmHsaOuF1483N3vEvjrTq9hpPL5mj5fPZQPSBbd5YMzEI2rUw2rUCCVMTJ%2bbriAs5X5NLKxuFSzWV8U32JryKbnKk%2blwy9wOvPl%2bfi27orvD1bwaKmYsQUC3nfbIxU8goReQd7ztBkca9JV2dAWBLPPYbhK30OzpWd557D%2bmUh8tBzgCmOVda4tsYyxaOC9ncWnyyW2d7NJqQ2xz6rV1I909F26bge07HkDinPATprrmAyDYc5X3RpeV%2bsb2uOMOcH1o71%2b1BzwKS7QMv4jCy16khsnm0z9oT6lh/YBQw/sOP8t3aB2f8GZwmYJWCWgP81/BsKb/3q%2bxV2zgAAAABJRU5ErkJggg==' /%3e%3c/svg%3e"},"path":"/blogs/debug-device-specific-issues-on-your-website-remote-debugging/","timeToRead":1,"humanTime":"04 Jul 2020","datetime":"2020-07-04T00:00:00.000Z","category":{"id":"Blog","title":"Blog"},"author":[{"id":"kumaravel","name":"Kumaravel","image":{"type":"image","mimeType":"image/png","src":"/assets/static/kumaravel.f26c338.62b7462775409c8a2ece49d93896682d.png","size":{"width":50,"height":64},"sizes":"(max-width: 50px) 100vw, 50px","srcset":["/assets/static/kumaravel.f26c338.62b7462775409c8a2ece49d93896682d.png 50w"],"dataUri":"data:image/svg+xml,%3csvg fill='none' viewBox='0 0 50 64' xmlns='http://www.w3.org/2000/svg' xmlns:xlink='http://www.w3.org/1999/xlink'%3e%3cdefs%3e%3cfilter id='__svg-blur-acb62cea0c5ba9796bef793e28a4ac1c'%3e%3cfeGaussianBlur in='SourceGraphic' stdDeviation='40'/%3e%3c/filter%3e%3c/defs%3e%3cimage x='0' y='0' filter='url(%23__svg-blur-acb62cea0c5ba9796bef793e28a4ac1c)' width='50' height='64' xlink:href='data:image/png%3bbase64%2c/9j/2wBDAAYEBQYFBAYGBQYHBwYIChAKCgkJChQODwwQFxQYGBcUFhYaHSUfGhsjHBYWICwgIyYnKSopGR8tMC0oMCUoKSj/2wBDAQcHBwoIChMKChMoGhYaKCgoKCgoKCgoKCgoKCgoKCgoKCgoKCgoKCgoKCgoKCgoKCgoKCgoKCgoKCgoKCgoKCj/wAARCABSAEADASIAAhEBAxEB/8QAHQAAAQQDAQEAAAAAAAAAAAAABwAEBggBAgUDCf/EADcQAAEDAgQDBQcCBgMAAAAAAAECAwQAEQUGEiEHEzFBUWFxgQgUFSIykaFCgiMkM0NisVJywf/EABoBAAIDAQEAAAAAAAAAAAAAAAEFAAMEAgb/xAApEQACAgECBAQHAAAAAAAAAAAAAQIDEQQxBSFBcQYSMrEiMzRhgZHB/9oADAMBAAIRAxEAPwC1NKlSJtUIauLS2hSlqCUpFySbAChpmjjNlrBZCmIynsSdTsoxraB%2b47H0vQ29pDiBJ%2bLKy5hzy24ce3vYSbc5wgHSf8QCNu01X5%2ba%2br5krukfpA6UMhLcYJx5y1LeDeKMy8MCiAl5Y5jfqU7j1FqLMSSzLjNSIrqHmHEhSHEKCkqB7QRXznkv%2b5q1P35bqAdj0Pb96M3s6cW3MKxSFlLExzMLku8uM8rZTCldAe9JO3heiAtxSpA0qhBVg1revKWp0RHix/WCFFH/AGtt%2baGQ4KfZ%2by/LzXxHzIllSY6G5roLhBN7GwH4rGG8IJTiRbEWz33bNTxiLIkyMTmNvKE2a4lbjhSAdYT8xA6CmLEbNcZanY%2bLuIbQNWh%2bz2o3tptpFtt738KwSvlJ/C8DSOljFYkssaYbwiwXD0B/EUO4jJTuC6ohCT4Jrh5myqXsyYD8Mj8px2czHc0JsdCnE7j7VNcwSswTYsWNAniK662VLWlsE3HYO6/fvXFw/B8SiO82RLlKfSpJbcLyydexuL9CFdDVddjclNsunSvK60i096zemzWsNoCzdYSAo%2bNt63CrU0EuDa9ZTWtbA2oBYJszYF8AxjmMrKo0pS3U3H0m%2b4/Nc%2bfi8JnDX%2be800sIJ1KNqkvFnFo4gGKwoOzoim33EI3LaFagL92qx28KDa48PGH/AHpSQ842nSlKllOkXv076X31KMsrYa6a1zhz3HUHO2Hv4hhyHVMNBvVqXZQB8N//AGpfBQjMuNQ4sN4hpxWsuo30pG5I%2b1QeYyiQxyZGGMx2U9VGVrCvS%2b1EzgPh0RjB3pTQGvUqOwk9jaSLkeFyB6UaqVKSx0OtRc4QeeoVx03N/OsUr1i9MBOcrMWZsGy3H52N4gxETa4StV1q8kjc0C%2bIXtEttx3omUIiw8oFImyQPk8Uo7/P7VXrFcbnYpIcfmyXXnVm6luKKlH1Ncdd1KVckm1aVXGP3BkLfAfMj87Ps%2bDjD7ks4yyeYt5ZUpbiSVC5PbYq/FE/NnDx6MVy4rjrbKt%2beyL2Hcodn%2bqrFlbElYLmXDcRQopMZ9DhINjYHcfa9X3axRrC8IfnS3Erw9pkvlz/AACdX5FU3UqyOdmi%2bm91vGMoCWWcjTcXnJje%2bOSkjdaijShA71d/l212uMeNO8NpuS2suLS2YzUnUhYuHUkt6tY8Tf16dKmvBvN7eYoc2O6yyxMbWXwlpASFtqO2w7U9D6UCvajxHn8TWIwJIiwUp69qlE1zoK02pN5O%2bIOcZOuSxgMOT%2bN2W8bLTGKFeDzF7fxzqZUfBY6fuAooMutvtIdYcQ40sXStCgpKh4Eda%2beSX/l7rHapTlHPmO5YeBwjEnmG7/M0TqbV5oO1MZaOMvQ8C5WtbkEB3t31kJupw%2bVePMCHEFYBT206KUpN0kgHuO1VRWS1sbOJsQattkXMrDnA2DimJL5zcRoxXGyd1rQSEJPn8npVTnRqTUvyhmCUMsycvav5RUtMy1/1BBTby6H0qq%2bbqrlJdC/SVK%2b6Nb2bCdwkxpGC50juy1paYdQR3ITrO4Ph0t3VAeOeIe/cU8ac1agytLIPkLn/AGa6wUlLDbvalNqGU59UiTIecUpanHFKJUbk71j4ZY5Zi%2bnMb8e08YONi68v0eK123FOWAVKG9c4oKiUlRNulekQFLqSronpTmEnk821yPB2nDO8du//ABpUqzw3Za9jdf0U/wArbYkbd1KlVWr%2bVLs/Y06D6ivuvcm8hSvh6tz0PbQ1/sjypUqwcJ9UuyHfiLav8/wwPrHkK9E/R%2b4UqVO47nl3sf/Z' /%3e%3c/svg%3e"},"path":"/author/kumaravel/"}]}}]}}},"context":{}}