{"hash":"356c3ea6480dbaa7d37df5e1c1f2ab159de33f00","data":{"category":{"title":"Blog","path":"/category/blog/","belongsTo":{"totalCount":18,"pageInfo":{"totalPages":9,"currentPage":3},"edges":[{"node":{"title":"Exploratory Data Analysis using SweetViz","excerpt":"SweetViz is an Open-source library to perform exploratory data analysis in couple of lines of code","image":{"type":"image","mimeType":"image/png","src":"/assets/static/cover.4250cd3.968fb5d0e3bf3f4e7d4a6a4587bdc5e9.png","size":{"width":800,"height":450},"sizes":"(max-width: 800px) 100vw, 800px","srcset":["/assets/static/cover.1b91758.968fb5d0e3bf3f4e7d4a6a4587bdc5e9.png 480w","/assets/static/cover.4250cd3.968fb5d0e3bf3f4e7d4a6a4587bdc5e9.png 800w"],"dataUri":"data:image/svg+xml,%3csvg fill='none' viewBox='0 0 800 450' xmlns='http://www.w3.org/2000/svg' xmlns:xlink='http://www.w3.org/1999/xlink'%3e%3cdefs%3e%3cfilter id='__svg-blur-70468f05c7510d669176dddc08414623'%3e%3cfeGaussianBlur in='SourceGraphic' stdDeviation='40'/%3e%3c/filter%3e%3c/defs%3e%3cimage x='0' y='0' filter='url(%23__svg-blur-70468f05c7510d669176dddc08414623)' width='800' height='450' xlink:href='data:image/png%3bbase64%2ciVBORw0KGgoAAAANSUhEUgAAAEAAAAAkCAYAAAA5DDySAAAACXBIWXMAAA7EAAAOxAGVKw4bAAARIklEQVRo3q1a%2bXcVZZq%2bf0nPmflhumfOGae1nemZaRE3dJC2ARGbYQRllQCGpUFUCKsi0LKrrEMjCgIRwhZCwJAEggk7gcQABkIWsm83d626yzPv8y331k1inzPnTGlRt6q%2b%2br53fd7liy%2bRSCAWS8Jxk4g6SUSiCbjyOx5Pgu%2bSySR48Nr/1M8Hf8c5/X1RdHUHEI7EZS49X8ac/C8pz%2bJcO4G%2bgIOurj60tfeo73p6QwiFY2jv6FW/OYYnnzmOodtc7anp1ld/ICpjXeEtkXrOMZwjHI0jKrz64nF5KQ/JNF9qQtPM9xeAfT9QEN5xFGICHR1%2b9PrDMi/ShMX6zWGICkdEAEFXiHYQkCsFEBEilTCFxrAw4u%2bLKCEpOuP6O67jGMF46eJv8qSVEEQgFINrhORYXmUOJQAtuYTn40SGtrynElg8U0j9BcAxESGITHT3hBQhiiCjoVhMtChWQcuwxAfDcWV9IbmS2G7ReCDopJjiwW%2bpTX5H4fBbRb85B7PWQDCKzs4%2btZ61IMe1dIgA%2bKC/9q05eQVgzcqakOMkDWN2TNodOI7M9Pq1xrxr8OS7oDBJU7ZEhaPpk8Kg4ILynuMtY/ag1oOhuAjUY6UD3FA7GcdQmBRaymJcbYnkwUdi%2bMCaBc03reVESqOK8WiacRLNb2OKiExL4erUFH23T/yQLuB4hMDvSBDXsCfHU0vUPv2dRHMc3/Wfm9rmmFgs0Y9h9LNIPTfHko54XFuRa/jlmj5O4gU9faZNnMzbDzRA6vcKjIwZW/BJAyLQJ/5KAYSjBqSM0JSgze%2b4B7xc45v085aWTuW7FIYFMNJhrZDWQ7%2b2AuqPSZYOBbNyDYordQq4hg3AW37Ii89OrMxcRJQQdSWpefOxBhkDkmTeWAe1SskS5EhIT29YMR0KOQp5CYAdIoBINM0kCQ%2bLWSsLog9HYoiY%2b4j85nu6TGtrF1rbutBN8BJAjBghxqmsaEy5CGni2Rd0lCulhEQ12xhjBEIhEgdII78lznAtKsHnNTHvQUHwJPqGZBFXCLQjYo4LVz7ukHDFs0f8ldfOTj%2b6eoKaAdFiQLToOGLqrivfaOZ5cnGhSc8lZ7cQ1tjQgu6uAHrlN8GT8/XKvDwDAVeZuz0Yrh0RIOekdgNi3m7ERcIQGHdFIDF5L1dHnsv/6KZFilA5P/GFFkZ88AWUb%2bjJW65dw/WNG1FfekExS%2bKC8k/ULNxeVYXGsrIUIcIHAvJpRAZb8qgNkRkcDDxcEgc9vrnmJ1xb9xlu7NqDe3dr4XfTY2iuPSFXrUsaaK6cP9DajuqvvlZKiXmVZa5ddQ14VFSUsSb5aH3QgJ8uXUaYwhaLpaJoWUoA7WKq1DCP8lWrsO%2bpp3D7aB4eFl9A9ZHj%2bKnkEm7s2I2qr/bhxs6duLx%2bPe7l5qL2xHHUXfwB5es3oaH8Mq5v2Ih7ecdQNGs2bn65HXXyfeW27Wir%2bhGVO3bi9r79qL96Ew%2bLStDV3oub%2bw/h0JixOPJuFio2bUHtmbO4sfVzVH1zAPnjxqO6qBQVG7fg1u6/INjZo%2bi79T97sPsXv0D99Uo0XbuFa5%2btR2dtHR4UFOLq5s/V%2bHPZ2WiqqEDbnTt4cPIkqg8eRtWpM7gm89z%2b%2bgBqK66jR9yMESoi%2bOWjj7tRLf6K1atxbOxYtNU9wtXPP8e%2bX/4S1fkFOPXWWygW4eSNGoXjb7yBwjlzUTh3Hr59ZgguclG5L/nkYxx/802ckLGly5fjdNZMnPngIxwc%2bpyMnY%2b7ZRXIe%2b0PyBOmO8T8ru75CuUbNqHm%2b2LkDhuGs/Pn49zChTgq709lzUJ%2btqyxZCmOjByNpltVCEiidHT4q/jq6X9B8YJFssZKHJswASfGvomCmbNQlLMMh4YOxcW1a4WeOcgbMQJl6zcg95VXcEFo//5PC5D7n8NRseULhMRkmGMQZH0qhAlw0FTKt36Jo6NHo%2bbYMVzZuhUFs2bhxp49OC6MFwlxxStWiCA%2bFmIXqAXPLc7B43sPUHX0GE5PmYLiDz/EJbEQCuDC6jUomDMP%2bQsXofLoCTV//qTJuPzFNiXse6K1I8LQmalTcefUKZTkLFXvL27dhsJ5C1D85w0oeG8OTkx8G92tHXhUVo6C2dmoEkspzJ6DkuUrUH26AMVyLV66DGdmZCF/%2bnRUC%2b039%2b7FuZkz0d7ciuPjxuH84sW4smsXzsybjzKhn7RQ%2bwFxV58NdUT11rZuPKi%2bj%2b6WVgR6e5UfNwoulIlUu9o7JIxIOiqZ1eP6ZnR19AiiugiHBOhEou2P6gX0%2bhAMSPbX3CxgE0BbYwuaBBAZ1roEhYuXr0JvW5sSgOM4aG9qQk9XtyKoV66P6xrRLgDYWFuvaoLGh41oqHusEqKgPwi/RJikwhkBsk7JMfwMhaJJv9QP9Q3w%2b6XuED4qxB0eVlxReNPZ3CKMOkKX5BatbcIDs0voZMwKgGDAXFzlzRLa4slMgHFjsVThw1AXEICKOEhlcgkDovwswWQjqZGaT7uFocctHYK8QZXccKiuAdLfxCS08VYChoooPeKfKimScMX6gM8ijs5B4oYWAXnFhDd68RWfdUo04fcq1su4qITiqPntmgQoaOb22UyPL4ImC3OczKrNm%2bMz7hJFW4QponXIpKvMERSeqJgeT6W6BBsK1i/oy9DpiDYYolQ4C4blPqoEpb4XCTCCdIrQmLn1iNBoCZyDsTtuNMO8JRjS8d8168bMGRJFUmAMd2RQ1w2iXPkdMPc2qWPO4bO5uxJAWCcZtjjqn2ExFnOSx83taBDz7hAzJKPecpQnpU%2biGW9p%2bt0y74VVq9EgZnl982a03LypGHlQeFYiSIUC4YSxiJ6Gx2LSUvqKIDhHpxFAl2iV1hcMRlTypUtmnQ0yRbf1RtgwxqqSVzLMZxFTNtssNxjSAvFZ5pTpiOQpVTtI1wSJjBSZkzBRoQAoCGZrKsMz1Zaq6GgBMg9RlskQ4%2b%2b5Wdmok/BULnhSMHkyLizJQeWBAyhdsgT5Ejkq1qzBDYk8%2bZMmofzjTyAepJImzuk3aTUtyeb1dKkOsURVV0Tj5mqLLF1TqGJMmCRPrB6tAKhwjlGZoM2Zo05cTRpPpHNobzrpTS34YdPjdtz/6aGygohpUtiylielSw24UW3u5cJg0XvvoXDaNBQtW4bc4cNxVlD56Ouvo1TC7%2bmsLJycOBHFIpCzM2YoAEuaIowa71Y4oFNw4kvI9A9Ic6/CpZgSEF1UaTwaT51Re/UUZLagSwsgGldMqLLSVlMevr2CoAQp3aamVtFMjzY942skygJXu5gpc3xl2u3tKM7JQfWJE2iqrkbFF1/iXtF5VOXlof7yFTy8VCbh8ggODBmC4kWLUum4XYvdHcdNF2EUALVI67CNEtVQkbHMFOOeJoytIm2Z7nr7AZYxXakljNYHb3N5S00CHdGWGuDiFhC1bznKNbTZhgfWGRj8aKmuwZXde1QipsYZcOY61K7tFWgBaDPXph5VZx%2bLKRFCh%2bBOXyCSwYel29sQoVv70u0j7eOD9fm89bX3PqYqMKiCJxSOZjCj6v4IUVfirgl7TLhUxWmqNoUrTMJ4jcW9BufpRdA6NdrbslmBtgCynZ/XSFSXzlEWSBIhiFN060wXzmyJcR6VCQ7sAWZqbLC2V/pdWp%2bP6urwzTdfIzf3sKB10FOOIEOIXmwZ0Hc0gvnrx0AaM4ouRitTWnubJrZPaBvAtCif7qt5monxQZoMGX22NFOW8Jj46mqpBX77r09j4oT/xtBnn8GSxR8ZvIj/rDv1F4DuUMdS39now9/23vs8s3eZFnDMhHXXdI0Tnk4x74lXdBW6k4%2b%2bS/OxkuUgSo7gNVhX2HtvNZWTsxjP/O7fcfXKFXX/0UcfICvr3ZRw%2bjdZ%2bzdcLWP2KCw8g9mzZuL/cnit0o2le5yWYVpCSgiuDuWMLj4mFFYAVsN80SegQ/4G7/wixXxtbS1%2b89Q/49YtndzUiRs8/ZsncdMkO/0Pr3n3B8czZwqwbt1aTJk8Sc1ReesWbty4jp07tuO773Lx1d6/oKDgNA4dOqjOAwf2Y9fOHbh9uzJjboUFUc2wSnsVWLqmF%2bkqATGXYJdIWYBrui2WIIYRm2WlwTGz%2b2pbTzU1P%2bKJf/pHVEiSY3FgrxBaXv6DzBNGdXUV6usf4d7du3KtV2Pu3LktArqRYvzy5cvq3RWxoNmzstDQ8AjZ2bNRVFSEPXt2o6zsApYuXYLr169i1MjXUFpaLPNfwt27P6KxsR6rVq1IKUZ3jOIZPceoCc/EBSqckYoRi9FKCcBxvBEgnSlFTIppc3AvBnjdYe7cbAwdOkTivq70SktL8G%2b/fVoYvYNnh/xOAeMfXhuBPInzx47lYcgz/4Hnn3sWp0/nY8OGz9SYYS%2b9INbzEEtzlqC66jaKi4uwZs2nuH//LnIPH8LyZTmS33dj7pxsrF37KUaKIB49eiiWcRi7du3MtAAlAJ000dwVsyG96RKOxDxNX4kCAdVUjBsryNxZiXu2kXTL3FsYseemGyl%2bKZ1fefklzHh3mrof8/oorBXiaQm/HzEcpSUliunblZWK8W3bvsCkdybig0Xv44Xnh%2bLA/m/w2u9H4Fsx6Sd//QTWfPoJWlubMXv2TIkmfZg/by52C5P37tXg/PkiXLp0CeeLzokVXcfKFcsHuFRYCi72GVXTw9Q3tvxNgbvh1eeNi5lApy0hbDY4dJr88%2bGppqZGaXKH%2bOvLw15EZeUtvDr8FXwnIZFaHffHsdi0cYMCy%2bnTpmDd2jVKmy%2b9%2bDymT5%2bqrGThgj8ha8a7%2bHT1J9i%2b/UtZ38Xp/JOCATtw6uQJPHxYi0XvL8S%2bfXvFte5g7Ngx4nrlYuLRVJWo%2bpKhqKoTmI1S832mBUZl9gfyAVtjXklyQl02sggJppqn1H5JSTGOGpM%2bdeokVgvRLw97STT5KsaPH4cPP1gk4PhrfPbndXjqyScw4a3xePGF5zD%2bv/6IsosXxaSX4h9%2b9fd4f%2bEC/PDDJcX83/3t3yjBjH1jDJaJyfNYtXKFuMF9HD58EG1tLZg6ZZJ6fremWoRyHEXfn8XmzZuE6VAqkhHobOs7pUDBNCWAxCACcNzB9wEtHqTKyKSVcEi0OFXM%2b1W8PnokRo8aiTfGjMa5s4XK/99%2bewK2bNmMnCWL8Y78LhBf5/wNDfWK0WliAfvF7AmUBL2ZWTOUBRAPpkx%2bR%2bYoxeZNG5VLHTz4rVpz5crlmD9/LqZNnSyRYo2836CsZNPG9WJhi1OJl9rLiOliSdf/iZQw0nua6T0PbQHx/nt8Azc%2b0/fJn8nM/n%2bP7u4u8fWyVAeopaUZV69eEWxoURbDk%2b8vXriAjo72zDAthmrrBgogtfvk2QONmy15n97ojHuyQQy6De7NzWkxTJT6%2bkIKcOgZuneQzthcl52XeOp5eo9RJyW82rEc1%2buXsraXBZWjTNi25eJxvRn610TMBhO/IS36e50G93J7Lajjvmu6QLYktum/j/5NHyFC2nxAZ2amYrJpcSK9kalwIaT/cKHpcZtqjma6TnrbejC36p8JciuNDVl2ffxmN1ltm0v00YQnVT%2bgpbXLbG/pdhu/a2ntVs0Z2zki02TexnprCVHTEbICsGv7mPWplpOABNNDN5aZu3NwyNT6VnLWnPi8uaVT7QcO9jcC3swRyYEFlrU0zh0wgEWTtfW6bdWpBkhYJzGs/a32SAfXpxJYLqten5NIxX%2b7C233Du3fKNiIRxp9tjmoOsIS6kLeWJk0ZaeTTogsKDqmicpYq0DUU0BZH8vcqcUAF6OFOJ55rV/ataywHSddvqZ3sZMqY2XtT22HzTa/bccxlfcb6w6YrXHbBUpZg3zzv6bQSg4FkD%2bOAAAAAElFTkSuQmCC' /%3e%3c/svg%3e"},"path":"/blogs/exploratory-data-analysis-using-sweet-viz/","timeToRead":2,"humanTime":"05 Mar 2021","datetime":"2021-03-05T00:00:00.000Z","category":{"id":"Blog","title":"Blog"},"author":[{"id":"eswariboopathikumar","name":"Eswari Jayakumar","image":{"type":"image","mimeType":"image/png","src":"/assets/static/eswariboopathikumar.dea1acb.dde169cbb22201165b7439b3decfcd9f.png","size":{"width":64,"height":64},"sizes":"(max-width: 64px) 100vw, 64px","srcset":["/assets/static/eswariboopathikumar.dea1acb.dde169cbb22201165b7439b3decfcd9f.png 64w"],"dataUri":"data:image/svg+xml,%3csvg fill='none' viewBox='0 0 64 64' xmlns='http://www.w3.org/2000/svg' xmlns:xlink='http://www.w3.org/1999/xlink'%3e%3cdefs%3e%3cfilter id='__svg-blur-ea57635d54ff29a6ea633827f1c6cf7a'%3e%3cfeGaussianBlur in='SourceGraphic' stdDeviation='40'/%3e%3c/filter%3e%3c/defs%3e%3cimage x='0' y='0' filter='url(%23__svg-blur-ea57635d54ff29a6ea633827f1c6cf7a)' width='64' height='64' xlink:href='data:image/png%3bbase64%2ciVBORw0KGgoAAAANSUhEUgAAAEAAAABACAYAAACqaXHeAAAACXBIWXMAAA7EAAAOxAGVKw4bAAADC0lEQVR42u2by2oqQRCGjcZAwBfwAllpvEWfQdx4z8JXCPgMgguFmIXLbDSggoiPo5iNJARX2boRFW/ROnRDi8w5CrF7anrOzEARQlqr880/VV3VPRYw%2bGUxAZgATAAmABOACUB/136/PxgaAOZM6Zx3EroBcOxYOQlZDEUBWt11zWPAMendbgfL5RIWi4VmRvwr1YgCgPzz5CoUCuB2u8Hv94PX60Uz4s/j8cDT0xN3PLgoBjAAiUQCLBaLZhaPx7nuPrcCcrkcncj19TVcXV2hGfFH/CaTSVwFKAFks1k6EZvNhnrnrVYr/UkUiKoA5SNgAjABaAOA%2bVMCQM8CsilASgAkapO/i7Sbmxv63alUSm4A7E5VKhUYj8fQ7/dhOBxy2/v7OwwGA/j6%2bsKtBS4F0O12Va0K0avB3wJoNpt0/Hq9hp%2bfH2HG5iG9AlqtFh2/3W5VK4GlTIOnAOi6JWYCkOQRENUWQw%2bC5LO8JrIXiQKg0%2bmolv6kVgCzaDQKj4%2bPtH4nq7dLLZPJQCwWg16vR/2TVMirBF3WAsVi8a%2bYIjUAUg%2bQx4HX7Hb7YWktKqvoSgHMT7lc1pcC1AZgeAVID0B0N1gZAwyXBUqlkr4U4HQ66W6Oz%2be72O7v7yEQCIDL5YLX19fDOkAXS%2bF6vU7HT6dTmM/nXDabzWC1WgnbnkcB0G636Xj2OdGdIOkBsGpws9moUg2a/QATgMEAnDqiY6gYICoe6DYLiMoIKADe3t7oeJLHSQ4XZeSM0L/6jNKtBMl5noeHBwgGgxAKhSAcDnNbJBKBu7s7aDQaXKtClM1RNesC3t4AakdIVFV43B16eXnhyjC6rAaPfVarVTwFyHJI6hwAwytAVQAyKYB1hzQFkE6nUSL9uezy/PysHYB8Pk8n4XA44Pb2FtWIT%2bK7VqvhB0Hm5Pv7G0ajEXx%2bfsLHxweqEZ/E92Qy4dopvviVGZnKWrSOkJKyiK1uHmPLX3QFyPzKzG/PE%2bn6rbFT8j/XI1D%2b/l%2b8NnfuLhtCAezYzKkYdTxGCeAPBVajw1K4ycsAAAAASUVORK5CYII=' /%3e%3c/svg%3e"},"path":"/author/eswari-jayakumar/"}]}},{"node":{"title":"Debug device specific issues on your website - Remote debugging","excerpt":"Fixing device specific issues using chrome device tooler, chrome remote debugging and online real device testing tool","image":{"type":"image","mimeType":"image/png","src":"/assets/static/cover.771f6be.183632b45a4bb11e605dc4e16a1fa5e0.png","size":{"width":560,"height":315},"sizes":"(max-width: 560px) 100vw, 560px","srcset":["/assets/static/cover.771f6be.183632b45a4bb11e605dc4e16a1fa5e0.png 560w"],"dataUri":"data:image/svg+xml,%3csvg fill='none' viewBox='0 0 560 315' xmlns='http://www.w3.org/2000/svg' xmlns:xlink='http://www.w3.org/1999/xlink'%3e%3cdefs%3e%3cfilter id='__svg-blur-e99e63507e0b35acae345b7af9efce78'%3e%3cfeGaussianBlur in='SourceGraphic' stdDeviation='40'/%3e%3c/filter%3e%3c/defs%3e%3cimage x='0' y='0' filter='url(%23__svg-blur-e99e63507e0b35acae345b7af9efce78)' width='560' height='315' xlink:href='data:image/png%3bbase64%2ciVBORw0KGgoAAAANSUhEUgAAAEAAAAAkCAYAAAA5DDySAAAACXBIWXMAAAsSAAALEgHS3X78AAAKuklEQVRo3u1ZeVCV1xVn2pm0zUzTaTuZaWfSbKbTSWpnGqOJlsRUZashMpiI0aoxpFFi4hbFqEFcg4qCCftjeyyPfYlo0GgUkOXtO/sqwmORRXgIYhD49dz7Fh9bIqT2j5Y385v7feeeu5zfPefce79nJ22V4f8ZdrMEzBIwS8AsAVOiRcohsTwbJPdhK2cY11ZilrHyx8K2vwftc3yb6REw3vBmianjDhUkXRpIOlWmuuapiZjOJKbCZMaMl7GxZe0KyAmsZHKxYaLutAmwGMU6EPfoIG2TQ669AIU0G3JNLtXJuFwynqxxJMja5TQhCUqaxSgxMEisEH8PmK6MxmSQTOFhig4l5G0yFDYUIr82HwV1BSSXQMkW6AGJt/te16XBpbTqmvRgVG7yQM0br6F2yXzULH8Vle%2b/Ba0oEBJiXUJGSg02JPBVkEDVrUZA9Gns2L0Ve329sWvvdmzbtQUf7fDCxzu9sGW7F7y2eWHzts1WWN637PwIHus8kJyXAs0tLe/PMi/2rO7WIPFyEtxWe8BphStec1hG%2bDvslyyGX8RxaHuojdlzp%2b0BlkYyWmW1z4eoXTgXdYtfRI3DQlQTapYtpPd5qCN5%2bacfUCiITSRYBrNOUo0Dx31x/lwBKmvboa0wQFtOqGiGrtKAssp6NNTXo7GhEdcbrqPpRhNaDC1ovtGM3p5e%2bB/3R1BKEEpvl3EPssythAzT92pwKiMZ87wzYX8sDwsPXcbLR/Lwwu5cePp9AW2XnIfCtAiwxgwNUNKrQ97JnVD9%2bUmUO76C6qULUGs/FzccX0Lt63NRRZ5Q7WiPmpeeh/7gdog7NTw5WuJSQoMzDzgccAR6VSWMfaNo7RhBVw/QcxsYGCL09aP/Vjem%2biXExSM4LQSlfWXW1TSFkwTaWyoEn8vAliQd9l9qwvrMLqxM64OzsAs7BUlQ3xRD3CKbvgeIqYG2TYm4hotY4uOC4leeh%2bZvc9HgvgR1MdG4lnEN1dlxaAlZhubAv6Az4mUYBS%2bitDoZJe1EQos5MZpD4OBJXzTWN5hNGiGMmkEEdHfjuk6Pzs5OjI6OYmRkhOPevXu8Pl5IBKQGQ9erR/GNEp5PTOFAc%2bxWkAekwPmMHh4JBrgJm7EqoRnLQ2vhLUiApoORJZu%2bB7DkVN6pxUcFZ2AX%2bxZ83lmEioUvQPZ1IdaJgNdODGFVFKDUKwHJqxgWLwKk89Batg/FbTorAZYc4HPCh9zcRMDw8Ag3lIPeB/v60N3UhD4q2c9SNzw8zN/jYoUISQ/FdTRSTOtwjZJdUl4yioiMmrvl%2bPJcNpyCKrFa1AbPyHKsSWiCS0QjdhMBakZAy0wIIAN0N9VYeeEg7GLexpxjLpBuX4%2bjZ7/DvH29cPYzYv7%2bXnwiGsZo1R4MS14G5PboLfVESZtmDAEsUX3mtx8NdSYC2OpajGS/u3cG0H/79gTXZ3rsJ4yJRUBCIPyFpxCWGY6jYUdx4AtfpBVnIledg8DsdDiFVGPvlwUI8A6Br38ulkdcJwISTR4wEwLEZICWCHAjAh4RrMRPBO7Yn7APfimD%2bKuPEc4n%2bjDfpxcfx9/DaO0BjMpfIXewh1G/kQhQTyBg37G9qK%2btn5QAo9GIm23tuE0k9Pf385KBydkvShDJjX9320ZEnY/mJLCccCLGH4mXiBxGQHAVDpHhp3cE4vOjaXANr8euH0MAC4EyCoH3r57CTyPc8Vj0O3gyaQNE0iqs%2bxJYfHgA7gHAFeV1oNQVI4rFgGIh2iv2UAhoxxJwS4NPj%2bxBXW3dpAT09/agy2Ag4wcwODiIO%2bQRd%2b7cwcDAAK8PCwlDaEYoBcANTqaqS42Mkkx8HnkcpUYNhUAWHL4oxwZhA3YFXMV7URVwDicPiEiYGQGmJGjygJiybDwatQq/iV2LnwnewoKsrQiRFkJwrQEn84ohK/YEVIswrFpGBCxCZX0cecBEArwPeaOmqoYbNDQ0xOObgZFh7O1FR7vJAwbv3sV3Q6NExHf8nf0E4QK%2b4lrakVgSZMawQ46aEqHulhJncrLwDwqB1andcE/uhkdKF1yjmuEdKZp5DjCFgRSadhXccn1hF7YCjwv/iZ8L3sZjlBQfj1sL%2bxAn9EvsAbUDxf8CdOs3QdzKjqHS%2b6dH2qrYiu05vIe7%2bYP8Ro2MqHvW9/TUNH4O0BtL758DaAdgSVDfo6YckIbXjxXBLawMbwZp4Baqx1J/JT4JjYGmUzb9c4DtViinU2B%2bUxHssz7hJPwyejV%2bHbsGdgHuuHzRCdCR68sWoE%2b7FormPCJAaTbe1If8pgLlg5XY6bMDhw4fR0hUMkQikRWJiSIkJCTy56TkVMREBmH/vtWIDPOHKCkFWVlZ8NrshcicKFQN1Yw5oJU0iVE%2bUI6DQUfxyKO/xe%2bf%2bRMe/8NzvPzFr36HdR9uhL7PRNq0CbA0YCQo2hQopjP5h/mBmCPyhF3wSqwXkvHqV3FHtRzNFQcgMxSZjZeMOUaHJ4ciUHAKW7ZuguPSJXB2coSLkwOHs6MDHJcttcJh2RI4OTjgjeWucHF2tuq5kJ6v32cICD%2bJjIJ00xnffK/QGfUISg7CnGeexh/nPItnn34Kzz37DJ564gnsPrKL18%2bYAFsSZFSWdmhwpfEaBNosFFYloqoxFbKmq3zfl7TKTcaPu0dc1F5EjjQH3%2bi%2bQX5VHvIqxyK/Kn8smLziCtVdtdG7ilxVLvVzFnnV%2bdaLkXV%2bFGZfay5QYsxCSkEa0osykaM4h8LG4ikvUQ98F7A1hp0NWEjoOmibo9NecStdiVnMt4y7DtuQoKDVYjmAlfKbdGvrGAcmozCxokM5KdiqswMVu%2b5KJrlu86RIOwRLuJadwtb4mV2HbYlovf%2bRoYS7ucRquO3lZ9KPIIb/IKb4HjDZVXoy3dlPYj%2bWgAmst5hhsCkNY98tJ8sJqzRFuzF9j9dv%2bR6dlokr/1A%2bivIvPJT01HT1Vd6k2KScwJ552aEZ866h06ScdhGmZ6kzye/XW0pLG5ZwtV0kZ21IZmnH%2brCMp2hXWmWs3jouy08z%2bARnN13jC28UIVGWhCzdV8jUZkNEz6xMVqQiVZWOJEUK0jWZEIrj8W3tFXylP0t1JlmqKo30k7l%2bvCSR68eWCJEkT0aKMo33HV0Uy/tmY6QoU5FB7c6W5vB%2bmH5u5UWkqTJIdo6PlUYyps/Gv0btHzT7T5sA5mZsVdgktkRvhXfSXqzwW4m1Z9bD4/RarAlchw8ivPDGUTdsCPaE6zE3bui%2bVB8uWx%2b0Ed6iT%2bFyxBXvh2/Cm37u/H1vyme83c743dw4B18XeIZt4jrvhX6At0%2bthieV/wrfTHeRjXxcVvpmHsaOuF1483N3vEvjrTq9hpPL5mj5fPZQPSBbd5YMzEI2rUw2rUCCVMTJ%2bbriAs5X5NLKxuFSzWV8U32JryKbnKk%2blwy9wOvPl%2bfi27orvD1bwaKmYsQUC3nfbIxU8goReQd7ztBkca9JV2dAWBLPPYbhK30OzpWd557D%2bmUh8tBzgCmOVda4tsYyxaOC9ncWnyyW2d7NJqQ2xz6rV1I909F26bge07HkDinPATprrmAyDYc5X3RpeV%2bsb2uOMOcH1o71%2b1BzwKS7QMv4jCy16khsnm0z9oT6lh/YBQw/sOP8t3aB2f8GZwmYJWCWgP81/BsKb/3q%2bxV2zgAAAABJRU5ErkJggg==' /%3e%3c/svg%3e"},"path":"/blogs/debug-device-specific-issues-on-your-website-remote-debugging/","timeToRead":1,"humanTime":"04 Jul 2020","datetime":"2020-07-04T00:00:00.000Z","category":{"id":"Blog","title":"Blog"},"author":[{"id":"kumaravel","name":"Kumaravel","image":{"type":"image","mimeType":"image/png","src":"/assets/static/kumaravel.f26c338.62b7462775409c8a2ece49d93896682d.png","size":{"width":50,"height":64},"sizes":"(max-width: 50px) 100vw, 50px","srcset":["/assets/static/kumaravel.f26c338.62b7462775409c8a2ece49d93896682d.png 50w"],"dataUri":"data:image/svg+xml,%3csvg fill='none' viewBox='0 0 50 64' xmlns='http://www.w3.org/2000/svg' xmlns:xlink='http://www.w3.org/1999/xlink'%3e%3cdefs%3e%3cfilter id='__svg-blur-acb62cea0c5ba9796bef793e28a4ac1c'%3e%3cfeGaussianBlur in='SourceGraphic' stdDeviation='40'/%3e%3c/filter%3e%3c/defs%3e%3cimage x='0' y='0' filter='url(%23__svg-blur-acb62cea0c5ba9796bef793e28a4ac1c)' width='50' height='64' xlink:href='data:image/png%3bbase64%2c/9j/2wBDAAYEBQYFBAYGBQYHBwYIChAKCgkJChQODwwQFxQYGBcUFhYaHSUfGhsjHBYWICwgIyYnKSopGR8tMC0oMCUoKSj/2wBDAQcHBwoIChMKChMoGhYaKCgoKCgoKCgoKCgoKCgoKCgoKCgoKCgoKCgoKCgoKCgoKCgoKCgoKCgoKCgoKCgoKCj/wAARCABSAEADASIAAhEBAxEB/8QAHQAAAQQDAQEAAAAAAAAAAAAABwAEBggBAgUDCf/EADcQAAEDAgQDBQcCBgMAAAAAAAECAwQAEQUGEiEHEzFBUWFxgQgUFSIykaFCgiMkM0NisVJywf/EABoBAAIDAQEAAAAAAAAAAAAAAAEFAAMEAgb/xAApEQACAgECBAQHAAAAAAAAAAAAAQIDEQQxBSFBcQYSMrEiMzRhgZHB/9oADAMBAAIRAxEAPwC1NKlSJtUIauLS2hSlqCUpFySbAChpmjjNlrBZCmIynsSdTsoxraB%2b47H0vQ29pDiBJ%2bLKy5hzy24ce3vYSbc5wgHSf8QCNu01X5%2ba%2br5krukfpA6UMhLcYJx5y1LeDeKMy8MCiAl5Y5jfqU7j1FqLMSSzLjNSIrqHmHEhSHEKCkqB7QRXznkv%2b5q1P35bqAdj0Pb96M3s6cW3MKxSFlLExzMLku8uM8rZTCldAe9JO3heiAtxSpA0qhBVg1revKWp0RHix/WCFFH/AGtt%2baGQ4KfZ%2by/LzXxHzIllSY6G5roLhBN7GwH4rGG8IJTiRbEWz33bNTxiLIkyMTmNvKE2a4lbjhSAdYT8xA6CmLEbNcZanY%2bLuIbQNWh%2bz2o3tptpFtt738KwSvlJ/C8DSOljFYkssaYbwiwXD0B/EUO4jJTuC6ohCT4Jrh5myqXsyYD8Mj8px2czHc0JsdCnE7j7VNcwSswTYsWNAniK662VLWlsE3HYO6/fvXFw/B8SiO82RLlKfSpJbcLyydexuL9CFdDVddjclNsunSvK60i096zemzWsNoCzdYSAo%2bNt63CrU0EuDa9ZTWtbA2oBYJszYF8AxjmMrKo0pS3U3H0m%2b4/Nc%2bfi8JnDX%2be800sIJ1KNqkvFnFo4gGKwoOzoim33EI3LaFagL92qx28KDa48PGH/AHpSQ842nSlKllOkXv076X31KMsrYa6a1zhz3HUHO2Hv4hhyHVMNBvVqXZQB8N//AGpfBQjMuNQ4sN4hpxWsuo30pG5I%2b1QeYyiQxyZGGMx2U9VGVrCvS%2b1EzgPh0RjB3pTQGvUqOwk9jaSLkeFyB6UaqVKSx0OtRc4QeeoVx03N/OsUr1i9MBOcrMWZsGy3H52N4gxETa4StV1q8kjc0C%2bIXtEttx3omUIiw8oFImyQPk8Uo7/P7VXrFcbnYpIcfmyXXnVm6luKKlH1Ncdd1KVckm1aVXGP3BkLfAfMj87Ps%2bDjD7ks4yyeYt5ZUpbiSVC5PbYq/FE/NnDx6MVy4rjrbKt%2beyL2Hcodn%2bqrFlbElYLmXDcRQopMZ9DhINjYHcfa9X3axRrC8IfnS3Erw9pkvlz/AACdX5FU3UqyOdmi%2bm91vGMoCWWcjTcXnJje%2bOSkjdaijShA71d/l212uMeNO8NpuS2suLS2YzUnUhYuHUkt6tY8Tf16dKmvBvN7eYoc2O6yyxMbWXwlpASFtqO2w7U9D6UCvajxHn8TWIwJIiwUp69qlE1zoK02pN5O%2bIOcZOuSxgMOT%2bN2W8bLTGKFeDzF7fxzqZUfBY6fuAooMutvtIdYcQ40sXStCgpKh4Eda%2beSX/l7rHapTlHPmO5YeBwjEnmG7/M0TqbV5oO1MZaOMvQ8C5WtbkEB3t31kJupw%2bVePMCHEFYBT206KUpN0kgHuO1VRWS1sbOJsQattkXMrDnA2DimJL5zcRoxXGyd1rQSEJPn8npVTnRqTUvyhmCUMsycvav5RUtMy1/1BBTby6H0qq%2bbqrlJdC/SVK%2b6Nb2bCdwkxpGC50juy1paYdQR3ITrO4Ph0t3VAeOeIe/cU8ac1agytLIPkLn/AGa6wUlLDbvalNqGU59UiTIecUpanHFKJUbk71j4ZY5Zi%2bnMb8e08YONi68v0eK123FOWAVKG9c4oKiUlRNulekQFLqSronpTmEnk821yPB2nDO8du//ABpUqzw3Za9jdf0U/wArbYkbd1KlVWr%2bVLs/Y06D6ivuvcm8hSvh6tz0PbQ1/sjypUqwcJ9UuyHfiLav8/wwPrHkK9E/R%2b4UqVO47nl3sf/Z' /%3e%3c/svg%3e"},"path":"/author/kumaravel/"}]}}]}}},"context":{}}