{"hash":"356c3ea6480dbaa7d37df5e1c1f2ab159de33f00","data":{"category":{"title":"Blog","path":"/category/blog/","belongsTo":{"totalCount":18,"pageInfo":{"totalPages":9,"currentPage":6},"edges":[{"node":{"title":"Notepad++ Macros- Solution for repeated actions","excerpt":"Know about Solution for repeated actions using Notepad++ Macros.","image":{"type":"image","mimeType":"image/png","src":"/assets/static/cover.771f6be.65d68ab737f542edb1ffbc406d0cc313.png","size":{"width":560,"height":315},"sizes":"(max-width: 560px) 100vw, 560px","srcset":["/assets/static/cover.771f6be.65d68ab737f542edb1ffbc406d0cc313.png 560w"],"dataUri":"data:image/svg+xml,%3csvg fill='none' viewBox='0 0 560 315' xmlns='http://www.w3.org/2000/svg' xmlns:xlink='http://www.w3.org/1999/xlink'%3e%3cdefs%3e%3cfilter id='__svg-blur-bce9565e87fca50c4d56fc3dff8ecede'%3e%3cfeGaussianBlur in='SourceGraphic' stdDeviation='40'/%3e%3c/filter%3e%3c/defs%3e%3cimage x='0' y='0' filter='url(%23__svg-blur-bce9565e87fca50c4d56fc3dff8ecede)' width='560' height='315' xlink:href='data:image/png%3bbase64%2ciVBORw0KGgoAAAANSUhEUgAAAEAAAAAkCAYAAAA5DDySAAAACXBIWXMAAAsSAAALEgHS3X78AAAHq0lEQVRo3u1ZeUxVZxYnJpr%2b4VhbR%2bDtj/tYCk9BZXnAYykKZXNkkVqsGchAoYpGJrYdaOiCOlM7dmpSaogEGIfFh6g0IIhVQKi1gKlLcCmhwIgRZBVE0MbR9Dff%2bewlF4MFMzMJZN5NTu53zz33e9/5nXN%2b57v3WdjY2OD/WSzMAJgBMANgBsAMwP9ItFrtlOM5A8DzLPppW/FazUTzy3g2gjAjAARBmFak9uJZo9VgmUYNBwkIcwYAqTMymWxKkcvl/KxQKKDT6SZHmTmv1tkjJXwdXO1soZxrAFBUlUolXF1dkZeXD5OpBIcPl%2bLQIROKi00oKipGYWER9u/PRlDQa1i6dOlEJgiCDaxlCqwLNuCdP74FmUIFYa6RIDlDkfXx8cHY2Dikx89MHj8GHj76GWPjP%2bG7xmakpGyFlZUVzwAdA8BKIeBIxhJsXKPAUpkN02nnFgeIAHh5e6PjZjeGRsfROzSCfpI7d9E3OILbA8NMRnD1hx/R3nkTH2fugpbVvJVcQGSAEhUfvgiFUpxT%2b9wd4lnE%2bt8k62kB8PY2oqu7F8Nj93FndIyfB0fuPZHhMQwMjaJ/8C56B%2b4yMO7i1Vf98ZuXFChK%2by3e/p0MS6yFSdGXkqaUPKfSSa%2bfXtvT96ea61m2UhCmBcBo9MGtnl7c/%2blfGOgbxfVrHWhsPI9LF1vQ3tGFoZExlg3D6OkfxMjYPbweGw8v5yX4evfLjAjFH5tMqMQtdC0lUNKJpKrRaLiO7K2traFWqydsRTuyUalUXEdjOtO1dCy9T8/RXDSWgjB9BhiNuHX7NnpvD%2bLT%2bk%2bw89t0nGmoQfWZCjSer8fAcCeL/jV0913C6P0r2Pbu%2b9ib8ALSY%2bV4yepJ9Gk%2bWoCLiwuampqwadMmLF68GAcOHEBubi4WLlyI9evXo7m5GaWlpdDr9ZxP6JnCwkJUVlaitrYWnp6eyMzM5HOQ/vTp08jIyOAEnJaWhhMnTqCkpATHjx/n5O3u7o6jR49yXV1dHfbs2cNBea4S8PTyYml%2bFd%2b3l%2bHj5kR8eSMVH5Vvxk5TAto6ChgflOJWXwEDIAdD93JRWf4BytJegN5BgFrzpPZpLooaOUDH4OAg6yaH%2bJgci46ORldXF5KSknDkyBGuc3JywrFjx3D27FnuSHZ2NlJTU1FdXY2%2bvj4ezeTkZDx69IgRcAqfi%2b7Tb7W2trJOVYyqqir09PRwP2JiYljnKuJrIGDFcvh1ANiivXyMuHYlD/sPbEbKe8H4cHcE3t8ZjE8/24Cab7ajvTcF/%2bxPQtut36Nt8A8YueSNP0W9jCUyHWx/qX0RTA8PD77gkydPor6%2bHi0tLaioqOCO9vf3c9v4%2bHhuQxGlIyIiAosWLeJRtrCw4NnQ2dnJU9lkMqG7uxvbt2/nths2bMCCBQtYiTby3wgPD8e5c%2beQk5PDgU1MTOTASTli2gwweBlx/vpWHKoKxu4sf%2bzJDkBJdSC%2b%2bjYQTV1huDIcgpY7waj83h9N3YGoLfDBKr0tVGrtRO8X56JI0pGeno7Y2NiJ1D548CDX5%2bXloaamhrXYx3yxHR0dyMrK4gCQc2FhYSgrK8ODBw9w%2bfJlPHz4kOuoVdMRFRXFQaJSamhoQGBgIM8KKqkdO3Zwm9DQ0EkgTLMRYov28Mbp9vU4fy8An5i8kPkPD%2bw1ueGzEnd8UeGB/VWe%2bLzMgIxsV%2bw66IK82jdg8DFAwTZCUlYmANzc3PgiyLl58%2bZxZ8vLy1FQUIC2tjbMnz8fISEh3MHIyEg4OzvzdKY6vnHjBuLi4vj4woUL8PX1xfj4OC5evAiDwcAzieqceKW9vR0bN27Eli1bOIj79u3DqVOnOOCOjo4TRDgjANzcPVF0NRymmwYUdxpxuM%2bI9/JdkPhnPbZlOSP582VI/tsyJPxVj4/OrMCXnX4Iiw6EzFLO658AEIWY3c/Pj9c3MTsBQmS1cuVKeDGuoYU5ODjwiNJCKVJ0b%2b3atdxhS0tLbk%2b2RJL0fFBQEOzt7fncBB6lPdmKHYVs6XnKFLIjvbQ1PvtlSHjC3K5uBuxqXI3MVhd80LIKGddXIumr5dhU6IS4Mie8WaxHQp0LEr5bjvhGPba0eiBqWyjkloxodMIECNI2SM6LnUEUyhD%2bAsVAENuc2B7JcXpOvJa2TrG10dwEConopEi%2bop7spM7PEAB3xLIUj6yzQ1SDHutIvtEjvMEJoewcVKNHwClH%2bH79Crwq7OF5wgGvpa2GjZz1cUE75ZultDSkG5lfsxHvTzWWZu10uhnvBElUKiVWsZTzK3TF8lINnEt1cCzRwI6NhSI1tKUsuodZ1P7O3vzymX2%2bAOtcJVb/JRh622VQa9UTP6qdpd8Eps0AqrMV%2bR6Q59jAvsAFK4qNcM/zhzvrCIYv1sB3bwjWZIYj8N21CH0nGsGbIxAYEwpbne2s/Qo04wxQs12T8woXxKS%2bicitbyA8LgqrI4PhtyYAvkZ/%2bHj4wXW5O14RHGGnsYOtSgeBvfyo5apZG/Hn/iCi0bD0VTCSkbM0l6mgZO2NNkgKBROlHEq1kn/50dgwGyI8qnvBZk44P/NvgoJUhMkygy9Kcx%2bA/%2bD92/y/gBkAMwBmAMwAmAEwAzBr5d/ytFOkHmM/lwAAAABJRU5ErkJggg==' /%3e%3c/svg%3e"},"path":"/blogs/notepad-macros-solution-for-repeated-actions/","timeToRead":2,"humanTime":"27 Jun 2020","datetime":"2020-06-27T00:00:00.000Z","category":{"id":"Blog","title":"Blog"},"author":[{"id":"kumaravel","name":"Kumaravel","image":{"type":"image","mimeType":"image/png","src":"/assets/static/kumaravel.f26c338.62b7462775409c8a2ece49d93896682d.png","size":{"width":50,"height":64},"sizes":"(max-width: 50px) 100vw, 50px","srcset":["/assets/static/kumaravel.f26c338.62b7462775409c8a2ece49d93896682d.png 50w"],"dataUri":"data:image/svg+xml,%3csvg fill='none' viewBox='0 0 50 64' xmlns='http://www.w3.org/2000/svg' xmlns:xlink='http://www.w3.org/1999/xlink'%3e%3cdefs%3e%3cfilter id='__svg-blur-acb62cea0c5ba9796bef793e28a4ac1c'%3e%3cfeGaussianBlur in='SourceGraphic' stdDeviation='40'/%3e%3c/filter%3e%3c/defs%3e%3cimage x='0' y='0' filter='url(%23__svg-blur-acb62cea0c5ba9796bef793e28a4ac1c)' width='50' height='64' xlink:href='data:image/png%3bbase64%2c/9j/2wBDAAYEBQYFBAYGBQYHBwYIChAKCgkJChQODwwQFxQYGBcUFhYaHSUfGhsjHBYWICwgIyYnKSopGR8tMC0oMCUoKSj/2wBDAQcHBwoIChMKChMoGhYaKCgoKCgoKCgoKCgoKCgoKCgoKCgoKCgoKCgoKCgoKCgoKCgoKCgoKCgoKCgoKCgoKCj/wAARCABSAEADASIAAhEBAxEB/8QAHQAAAQQDAQEAAAAAAAAAAAAABwAEBggBAgUDCf/EADcQAAEDAgQDBQcCBgMAAAAAAAECAwQAEQUGEiEHEzFBUWFxgQgUFSIykaFCgiMkM0NisVJywf/EABoBAAIDAQEAAAAAAAAAAAAAAAEFAAMEAgb/xAApEQACAgECBAQHAAAAAAAAAAAAAQIDEQQxBSFBcQYSMrEiMzRhgZHB/9oADAMBAAIRAxEAPwC1NKlSJtUIauLS2hSlqCUpFySbAChpmjjNlrBZCmIynsSdTsoxraB%2b47H0vQ29pDiBJ%2bLKy5hzy24ce3vYSbc5wgHSf8QCNu01X5%2ba%2br5krukfpA6UMhLcYJx5y1LeDeKMy8MCiAl5Y5jfqU7j1FqLMSSzLjNSIrqHmHEhSHEKCkqB7QRXznkv%2b5q1P35bqAdj0Pb96M3s6cW3MKxSFlLExzMLku8uM8rZTCldAe9JO3heiAtxSpA0qhBVg1revKWp0RHix/WCFFH/AGtt%2baGQ4KfZ%2by/LzXxHzIllSY6G5roLhBN7GwH4rGG8IJTiRbEWz33bNTxiLIkyMTmNvKE2a4lbjhSAdYT8xA6CmLEbNcZanY%2bLuIbQNWh%2bz2o3tptpFtt738KwSvlJ/C8DSOljFYkssaYbwiwXD0B/EUO4jJTuC6ohCT4Jrh5myqXsyYD8Mj8px2czHc0JsdCnE7j7VNcwSswTYsWNAniK662VLWlsE3HYO6/fvXFw/B8SiO82RLlKfSpJbcLyydexuL9CFdDVddjclNsunSvK60i096zemzWsNoCzdYSAo%2bNt63CrU0EuDa9ZTWtbA2oBYJszYF8AxjmMrKo0pS3U3H0m%2b4/Nc%2bfi8JnDX%2be800sIJ1KNqkvFnFo4gGKwoOzoim33EI3LaFagL92qx28KDa48PGH/AHpSQ842nSlKllOkXv076X31KMsrYa6a1zhz3HUHO2Hv4hhyHVMNBvVqXZQB8N//AGpfBQjMuNQ4sN4hpxWsuo30pG5I%2b1QeYyiQxyZGGMx2U9VGVrCvS%2b1EzgPh0RjB3pTQGvUqOwk9jaSLkeFyB6UaqVKSx0OtRc4QeeoVx03N/OsUr1i9MBOcrMWZsGy3H52N4gxETa4StV1q8kjc0C%2bIXtEttx3omUIiw8oFImyQPk8Uo7/P7VXrFcbnYpIcfmyXXnVm6luKKlH1Ncdd1KVckm1aVXGP3BkLfAfMj87Ps%2bDjD7ks4yyeYt5ZUpbiSVC5PbYq/FE/NnDx6MVy4rjrbKt%2beyL2Hcodn%2bqrFlbElYLmXDcRQopMZ9DhINjYHcfa9X3axRrC8IfnS3Erw9pkvlz/AACdX5FU3UqyOdmi%2bm91vGMoCWWcjTcXnJje%2bOSkjdaijShA71d/l212uMeNO8NpuS2suLS2YzUnUhYuHUkt6tY8Tf16dKmvBvN7eYoc2O6yyxMbWXwlpASFtqO2w7U9D6UCvajxHn8TWIwJIiwUp69qlE1zoK02pN5O%2bIOcZOuSxgMOT%2bN2W8bLTGKFeDzF7fxzqZUfBY6fuAooMutvtIdYcQ40sXStCgpKh4Eda%2beSX/l7rHapTlHPmO5YeBwjEnmG7/M0TqbV5oO1MZaOMvQ8C5WtbkEB3t31kJupw%2bVePMCHEFYBT206KUpN0kgHuO1VRWS1sbOJsQattkXMrDnA2DimJL5zcRoxXGyd1rQSEJPn8npVTnRqTUvyhmCUMsycvav5RUtMy1/1BBTby6H0qq%2bbqrlJdC/SVK%2b6Nb2bCdwkxpGC50juy1paYdQR3ITrO4Ph0t3VAeOeIe/cU8ac1agytLIPkLn/AGa6wUlLDbvalNqGU59UiTIecUpanHFKJUbk71j4ZY5Zi%2bnMb8e08YONi68v0eK123FOWAVKG9c4oKiUlRNulekQFLqSronpTmEnk821yPB2nDO8du//ABpUqzw3Za9jdf0U/wArbYkbd1KlVWr%2bVLs/Y06D6ivuvcm8hSvh6tz0PbQ1/sjypUqwcJ9UuyHfiLav8/wwPrHkK9E/R%2b4UqVO47nl3sf/Z' /%3e%3c/svg%3e"},"path":"/author/kumaravel/"}]}},{"node":{"title":"Setup and Manage Multiple git accounts in windows","excerpt":"Setup and Manage Multiple git accounts in windows","image":{"type":"image","mimeType":"image/png","src":"/assets/static/cover.771f6be.675e2d9fe2302942e0de694746839553.png","size":{"width":560,"height":315},"sizes":"(max-width: 560px) 100vw, 560px","srcset":["/assets/static/cover.771f6be.675e2d9fe2302942e0de694746839553.png 560w"],"dataUri":"data:image/svg+xml,%3csvg fill='none' viewBox='0 0 560 315' xmlns='http://www.w3.org/2000/svg' xmlns:xlink='http://www.w3.org/1999/xlink'%3e%3cdefs%3e%3cfilter id='__svg-blur-abe2b7fb86d2d4b28f45276aae747c80'%3e%3cfeGaussianBlur in='SourceGraphic' stdDeviation='40'/%3e%3c/filter%3e%3c/defs%3e%3cimage x='0' y='0' filter='url(%23__svg-blur-abe2b7fb86d2d4b28f45276aae747c80)' width='560' height='315' xlink:href='data:image/png%3bbase64%2ciVBORw0KGgoAAAANSUhEUgAAAEAAAAAkCAYAAAA5DDySAAAACXBIWXMAAAsSAAALEgHS3X78AAAHWUlEQVRo3u1ae1BUZRRnekyvqaZMkeWlhmkZlqVFgYUamoQotLLLLrAiSE5ZTTbOOGqZ1ZSazpT5aBqqycmwmjLRtRxAQBR5iZoKhMCCirxWdhcFEVl/nfPd3WV3FXzUamv98c2997vnnO%2bc33neBQ%2b0KvFfXh6uPuD8SYXtal3O%2b329d2sAnA0y6xXoblHY7q2Ln3m/W6%2b4ABC3jwCbN01036ECOmkZ6L4tFmin%2b9N0NdLzGZW0TLHXzPvXJALYszirxtYfXsC0lx6Blq7nmmPQUB6F8sIpqNobiY766SjMDEesPBCrl4cIemukuD0A5xiAc2p8uCgIN93sCR8fPwQHDUXgiCEY%2buAgDHtoEMY8EYAhg/1xy62eSIgdKSLFmhquBsHlKXCumQwwx2HtyrHod783HgoYDB9vP/j5%2bmOQnz/8afl4%2byPgwcHw9PSFhgFov0EAEMpTvrdTiE%2baMBwyLz/4%2bvrA08sLA71kkMm84SWTwXOg9Dx4kD%2b8CZzMTROpVkhp4HYpYF/Frfm/I30S%2bvf3gcxbhtGBj2DK80EIC34aY8eMQmjQaIQ//wwmPjua0sAPd9/jhbmvjRbF0r4OuCoaPFzZ80X%2bd8dR4ZuIO%2b7qD/WUCWjKT0dXdQkM%2bT%2bjKWcjWnI3on3fdnTXliJtxQL06ydDUsLjojs4zwaumA9cFgHc9kQEUGvLTn8RDzzghdxvP0FXZQlyVy5DW7EWZ0rScXa/FrXaNBR8sRqoK0LomKcxKzGQ%2bNRS/eCWaXTdYOThipzvbJDaXHNlNFqORONAXgQCAnyhXfcxzBX5yFnxEQxFW6GnCGgr/BU16esJgFXAsSIEj3oK785/EqeOTkdDRRQa/4yCviraZROiywBgw011chh0LwOIx/epIYgIDUVd1iagei9QlgFT5gZ0EQCoyAVq92PD0g8QNm644OHoMdbK0Ur3rTUvuwcADkAYpdBFmxLZW8NhqFOiIOMFvDN3HL5YosGqha9izYI5WL3wdaR%2bOAdrl6iw7L0Q8vg0yn%2bVowyD0n0AcJ790aZCZkYiZs8ORZdeI6JhQ2owbr3tXvT3HIDb77wPgY8OQGNlhBiYeBQWfNfoA8mFXYD3LJ0AM7DtpzBERD6DxYsjEPzsCDw5aigmh41AaMjDGPloAIqyCIAOS%2bG7yIeUW6WAMwjdLTE03alRnBWOtC9DMH3qMCijRyBi0jDIIx9G5OThyNsyDuiKIcCUNj7p6qbfAkJ54S2LISejgFMEBBbjzbkvIXT8GIyfFIyJ4cEInfAU0n97nVrfm4CeakCr3AaCtNx2FLZ6U47GxvlIry7G5/vq8dxUBcKUGjwWNBbBk6fhuUg5NEs%2bRVr9aWTrtGjXpxDPdDt%2btwcgGpup9X16BFi24wDe%2bGo75G8sgHLuAkyOowL5WRre%2blqLLyuMWF4GlB7/lip/BMwnVTcKAHK0NM/DtprdWK8zYmlJJ%2bZsrMB7%2bZ2Ypz2Bt9OPYV2lGd9V1SOvbjPO6JOIJ8b9I8Caw9YoYCBMLa%2bhQvc%2binWpyC1Lxa7Kb1Baswa1xxaR4bOI5oasAQxCrOWeJkMjGWmcQj2flpHanzGSQj5KGG620UnAnXf/X4Ud2xoDYRaLPnctyyxW7AW01%2b03QUeFr2xdLV9fvPb7VyO/L0A9estdxxxU9Hmw8zsYLDwGO8WNiovvmxQXGChoW3vobfs2PsUlDbbn69m7wgg42xQrJrPOJg5Zi2FGO1AszzYDLUZ2NPI8L/FZjThRFYeOBkne6RMqGz/vM60Awiidqa9Vo8tCx/TSSK3EmcbYnvPsnWN0vLKuXc2SvuariQChEE1tRQUzsa84EVk7kqErj8f%2bkhko268R1%2bOV8Sild1WHE5C/W6Ir3DNTKJGTk4wDe2n%2b3z4LjdVxMBxVYW9RIvLykvAH7Vce1Ah5zFNSmIjainjs3JkkAKr4Q4ODpTNw9M948U7IPB2Dw/tmoCB/JuqPxKGazmQZtSSD5fFz61E1jhxKQGmRJLO4IBGHiIf3e0C7kgggJlZwszYFGZnJ2ENG/vjrbKFoFR2UkTkLW39PwZZtKcjNTUJmVjIZniS8zoD8suUVscdKszK7yPjdu5IcDN%2bRnSz2WKZ2ewraT0gAsDwGMI/22Qj2ZA7tbfktBfm7ZqL8gEbIOEzO4LMyLOcwH/NnkwPYUQwegwlTzFUAQGFzql6FZp2aPKhGA3lSV54A03GVMJI91EDhW1QgRQiHLXuaeZmmqSYObcTPEVBHHub3vCfRqYUB7DG%2b5zNadJKn2oi3pixBRAPzNhIPn8cyGSCOAKbn1GEe1oP1ZFnsbU4T4zHpXOt51tpx5UXQmvO8OEfbYnqKGaHKacI5y0pb6Wz1wGSls%2bMz2clrtXs2Sct2JtMbevZtehiceIx2tPa62cl0rBl/sw2ane5FrWjtOaS3Zb6MVmVfrMyXIau36z/UBi8cZBxbTN/9uef9pXu5s3LO51wsMns3tLch7Dr/dfg//Q8S/wPwL19/AfhClNmF37AqAAAAAElFTkSuQmCC' /%3e%3c/svg%3e"},"path":"/blogs/setup-and-manage-multiple-git-accounts-in-windows/","timeToRead":4,"humanTime":"26 Jun 2020","datetime":"2020-06-26T00:00:00.000Z","category":{"id":"Blog","title":"Blog"},"author":[{"id":"boopathikumar","name":"Boopathi Kumar","image":{"type":"image","mimeType":"image/png","src":"/assets/static/boopathikumar.b4b2a9b.88a64e3560329858ee8479f29ae4cf5b.png","size":{"width":48,"height":64},"sizes":"(max-width: 48px) 100vw, 48px","srcset":["/assets/static/boopathikumar.b4b2a9b.88a64e3560329858ee8479f29ae4cf5b.png 48w"],"dataUri":"data:image/svg+xml,%3csvg fill='none' viewBox='0 0 48 64' xmlns='http://www.w3.org/2000/svg' xmlns:xlink='http://www.w3.org/1999/xlink'%3e%3cdefs%3e%3cfilter id='__svg-blur-d59f8e7b1d687340d3929028c9bdf315'%3e%3cfeGaussianBlur in='SourceGraphic' stdDeviation='40'/%3e%3c/filter%3e%3c/defs%3e%3cimage x='0' y='0' filter='url(%23__svg-blur-d59f8e7b1d687340d3929028c9bdf315)' width='48' height='64' xlink:href='data:image/png%3bbase64%2c/9j/2wBDAAYEBQYFBAYGBQYHBwYIChAKCgkJChQODwwQFxQYGBcUFhYaHSUfGhsjHBYWICwgIyYnKSopGR8tMC0oMCUoKSj/2wBDAQcHBwoIChMKChMoGhYaKCgoKCgoKCgoKCgoKCgoKCgoKCgoKCgoKCgoKCgoKCgoKCgoKCgoKCgoKCgoKCgoKCj/wAARCABVAEADASIAAhEBAxEB/8QAHAAAAAcBAQAAAAAAAAAAAAAAAAIDBAUGBwgB/8QAMBAAAgEDAwIEBQQCAwAAAAAAAQIDAAQRBRIhMUEGBxNRIjJhcYEUI0KxYqGRwdH/xAAZAQACAwEAAAAAAAAAAAAAAAAAAgEDBAX/xAAeEQACAgMBAQEBAAAAAAAAAAAAAQIDESExQRIiMv/aAAwDAQACEQMRAD8A6QRlPTJPsKON57BfvzRtuOVH4pvqVwbXTbu5QgGKF5ASM4IUnpXL6Xtme%2bPfM3TPD5vba2cXOpW/7YUn4A/cHHt/dc96r401zUr97q41i89VjkBJmRUHsAOAKr%2boXEt1ezyzOzyzyMzMTySTkmrNbeC5JLKKYS53qG29812IU10L9elkU5fySHhzzD17Rdq2eqzvHnJimb1FJPXhq2HwV5rJqzJDqlusc/QyR8KR9u1c8X3h2%2btZM%2bnkDutPdCuLnTJvUeFwo43EdKLaK7FmPRXn1HaEbLIiuhyrDIIr3AzVc8v9Uj1fwvaTI24oojbJ7irKOlcr5w8MVnnWkruNZLeZJcekyMrjr8JHP%2bqW6UCAw2kZB4OanBBxLaaW1/4ke3iVnhjkYk7cYUHjPtnitOhhkVUCAhVGMdqSjsZbTV9cEEYVzMAOPYGq3PqOu2dzkTRlcEsjkHnPy9OtdCTdz14a0lWi2zwHadwBOKiIowVu1eLho2GMfSlZtXu4rCCaa33PMMKFPU%2b1KeC55NX1uK2vbUwQzqyjJO4npx%2baRRkk2Dklo07yGsGtPBPquWJuJi4BGMADGB71o4pCwto7KygtbdAkMCCNFHYAUqx4PNYpz%2bpORkFK8NJpKruVBIcdVPBFNLjVLWCQo0ilwcEDk5o29IhvHTMfMhotJ8WBhCqRXcCyllGAXBIY/wBVVbq7s5ZBJ6cQI%2baRlzgVF%2bZN9qM/i2aS5B2Fcw5%2bVhnoKraobxmnWWTHRo1Py/TFb1RhLLNNNjceF01qSxu7W3RJYnz8oz/VWXyr0mJ9eMirvSCMsxPOCeBWNzRFJEkhlMTJ/LBH91vHlBqttbadcWdwm2ct6hlA5fjnP/VRbU4w/OwtvUdPrNP70MZPNIW%2boWdwVEN1C7N0XcM/8U6GD05rB8NdM6lnhncuq3VyS6yyAOfmzgkf%2bU1vdQlt4m/Q6dPeXHYMREhP1Y9vxT21t980kjDCg4H4o9wcMCOmetdGOF4YZNso2uWaazp0Z1MRWGoRuSFZxgfY9wR/uqFrHh26srolWaOQ/wAkOVetn1Szt7sAXESup9xUYvh/TVkZhCy5GGCuQD9SKtyurTLKb5V/l7RkFlo80lxFc30zi3Rw20L85B7DvVytbW9uJI54Xmtoc5EYcqT/AJHHer3FZWqQn9tCF4zt64pW0tVeIOyDLc06twiq6btlkaorSKkiArnqM8qfpUzpmq3VtIN0pZgP5chhnOPvSAjC/D2x0okkXP25FUNKXQi8cH8jH0xj4V9hRHCtBjtiiSNvXZn4R3pG5aX9PL6IDybTsVjgE44BPbmoSJexLO5CT0FFAyTmmlhPdNp8EmpQJb3BUl4kbcFOeBnvTiMlpVzxu9%2b1N6Kwj5WKZR03cfmpK14jA%2blRl8RHJ6eQTuGSO9PbaT4BQ%2bAHuDtkBpK5l9MKSOCcZr2dwc803uGEtowB%2bIDj70ICQjGYzIe3QU0mnPOBihQpUO9EdcOWkQH3pwGzgmhQp2INb0n14QOBinlvIdtChUvhC6JSSncfvRVc7iOxoUKBvD//2Q==' /%3e%3c/svg%3e"},"path":"/author/boopathi-kumar/"}]}}]}}},"context":{}}