{"hash":"356c3ea6480dbaa7d37df5e1c1f2ab159de33f00","data":{"category":{"title":"Blog","path":"/category/blog/","belongsTo":{"totalCount":18,"pageInfo":{"totalPages":9,"currentPage":8},"edges":[{"node":{"title":"Connect to a Remote Server via SSH directly from Visual Studio Code","excerpt":"Connect to a Remote Server via SSH directly from Visual Studio Code","image":{"type":"image","mimeType":"image/png","src":"/assets/static/cover.771f6be.6b598a84c2959a9d4129a52d71a1b613.png","size":{"width":560,"height":315},"sizes":"(max-width: 560px) 100vw, 560px","srcset":["/assets/static/cover.771f6be.6b598a84c2959a9d4129a52d71a1b613.png 560w"],"dataUri":"data:image/svg+xml,%3csvg fill='none' viewBox='0 0 560 315' xmlns='http://www.w3.org/2000/svg' xmlns:xlink='http://www.w3.org/1999/xlink'%3e%3cdefs%3e%3cfilter id='__svg-blur-37174120c64bbf991a97e868b8ff0dc5'%3e%3cfeGaussianBlur in='SourceGraphic' stdDeviation='40'/%3e%3c/filter%3e%3c/defs%3e%3cimage x='0' y='0' filter='url(%23__svg-blur-37174120c64bbf991a97e868b8ff0dc5)' width='560' height='315' xlink:href='data:image/png%3bbase64%2ciVBORw0KGgoAAAANSUhEUgAAAEAAAAAkCAYAAAA5DDySAAAACXBIWXMAAAsSAAALEgHS3X78AAAHjUlEQVRo3u1ZW29c1RWeh76Vp0pUQAoND6S0lAdEq0aggEQkFBUV1Fal4iZVICgCciFxnISAgyExJSWIhtohTmInIcTElxAnnsnYHl/m4hnP/XJmzpk5Z8aOM26pKlTxD76uteacwR58icdjCwk/bK19zuy99l7f/tZln7Hlcjl8n5ttDYA1ANYAWANgDYAatWw2W5aqloVGcuY7q7%2bYjplzNFOX1arRuaIAVG7Gep6eyOFaPge1YsM3arxmGj9JOooTOq5TY8nP1m%2b1AKFqALIVxlsnpdNzPJ1FfU8K9qCKYiEHQ1%2bi8aSnYOTEWNd4Bi1Xkjh4IS5yKJiR93kjVxMQbNWetjbjpFjyabOxUyRjBMBNByKw7Qtjy/EEgqks8vo3YxfSzcZPkI5gQsMrrRH8ar8fd%2b8ew8/rx0Ty86snIgjR7xP52SCsCgN4oQmjZHDaPHE2%2bvlzSTzZnoQ3rkFRs7jtUBS2PWHYdoVw0V9igjqP/86kPZ%2b8P6Zi88EAbn3NjQ27vLi77pu2YacX6%2bj9o4fGEaBxhVlMWAUGsPH9YQ19RO//TJaA%2bFN7ArYdIdi2h/DahRQmaczN7xIAe8PCgt6AiusmADMNzufz3wKEmfLURyHctz%2bA%2bvNZ7DynUcvi9U81abuov%2b2MKox47mhIAKiMPysGgGYCcDWk4t4jMTQPpvHM2SRsb4Tx9BmSu8PY3pmSMWUA9s4GwNqooigIBALlZ6b%2bFAW57pE01m/34IVWBSdHivjzxwn85RMFL55MS%2bP%2bafc0HjscEXb0jKYxVSi5zqq4QIYW%2bu81HYPEAjaYWz8B4opowoAdXYsDUCwWEY/H0dzcLP1CoSABlCP92%2bfjQvG/krEvUdvyfgTPH1dwxzY3frnHR%2bC4caDbwONHovjpdq%2bMn57UZf6KM4AXYJ9PZLJ4/GRC2l2HY3jwn3F8cDUN284QXp8PAAlYBIKqYmhoCJ2dnWhqaoLD4YDH46GsouMagVR3Oorbt3rw4gmFXCCHn9Epu5Sv8OQ/Erhj66jEgabeAn73QRTrd3hlvMWAFQXAivwc8D7zZFDXncK/Kdf7KOiVjSUAXuqoiAEVAGQyGTG%2bpaUFDQ0NaGtrg91uR043xJC9Z2P4CQHAp/9qu4rfEtU/dEzimeYk3uoysLkpTFLHEyYD9tF4rg9WhQEWEAzC/67rwgYOggzC%2br9F8aPGKNpGMgLUj%2bdyAW22Cxw9ehTT09NlFygSlY9Rrl%2b31Y2XT6WF6g%2b9E8TD7wbxx4/i2NuRE0D%2b3jdBAMRwJzHgWF9S5qmrwQArEHKqc1AW8FMu5qj9dVGHIeOy%2bGpKR4rS4C0H584Clp5EIgGn02kGQE0kF0yxlIYHGvzk%2bwTmaBEHLxXEYKY9A/IeyZbBKWw8MI5NjX7EFO2GCq2aAGAtwoafGs6Iv//%2bVAJPUCzYSf3jrgycIU0AWnfIBKAuPKsOKMcSXZeTn7lxPkV2g3ZnChvqfLiHUt2v3/Tjfip%2buADiPrdf1PsoFvhwpj8l41Wt%2bmKoKhfgU%2bcTZck1QeNlBQ98HMcP9lP1Vx/GDxtKkjPEBgqS7pgmgbHyIsMnX3mP4DEcDFvtSfzmLT/u2kXG7vaR0WNiND9vJIaccKRknLaMGqBqBlgbZckxgAuif1FADCQ1HHaksYmywiPH4mgdKsWDvJ77VtWXXaAq5DmcEr0RFY0dMTxLBc8fjgRFNnbE4Yuqpci/hItWTRlQeWJyVTXL2C8JDI74DAyDUmn0Dd81zAsR53gGkNfIm89S/mrLN77m12EGI2Pe2S1glvM9YC4d1jeB78z3gPlcZLkfLeb6zpDN1ubUa3IdXkqb7/a3mL6F5tUKiKoBqAaQxU60ki0LzasV06oKgoahSwrjXG4trJu/l6VeqhQNknnDkL5Kc7jPrXQdLvVLRVBpfIGuyFZhpOu58hoGjTOseeYc0Wv%2bvip1gLWoLxhCz9WBsvQEgghGYwhGYgjH4kil03AHxjEeiWIsGEaUqr5AOCLjYomkvOMozvN5vJLOwO0fR4j6vQNDuDTgQkpJy3pd9n64vGOIJ1OkPyqg8JiRMb%2b84zYThBUHgE9olDbb2eeUTV/ou0qbCeB0Ty9aPuuEbzyEaDyBvqERMZTfX3QOYtjnR59rBF2OfnTaneh2DKC9%2b5IYyDq76N0X/S4xjvsc6Rkwx/CosIPXY7C58Xwew7rPX7Yv67NYVTEgQ1fac5f6cMU1LEa1ft6DQY8P9qFR2XSabny8Md4sg9Te3SsgdVx2oH/UC%2b94EG1kPAPAzLl%2bbVLmftLRLQw7%2b8UVOEc8SKQUfH7FIeO7CbiLpI8BZ0AZyBMXekifZ5Yrrvz3AFqMaccGsRwlybRmo5nK3Cw3YQYo5A5sAL/3h8Iyh%2bnPG2fGOIbdmKQ7QVJR5LdEKiVsYZBZj4fm%2bsl9QgQU6%2bN1BtxecTMGL5ZMCkNWtRLkBScK%2bVlSl8BXCoKWqxTyhrzjfinAlYKWdWLs/2yoFTwN8zfWOdPlrMAp8%2bk9A6abwdVY7SBYeRdYSrqrHGNlg7nK64X0aIukxO/0f4Pz5f1aVXZrf46uAbC09n/PqOfUYCBClQAAAABJRU5ErkJggg==' /%3e%3c/svg%3e"},"path":"/blogs/connect-to-a-remote-server-via-ssh-directly-from-visual-studio-code/","timeToRead":2,"humanTime":"26 Jun 2020","datetime":"2020-06-26T00:00:00.000Z","category":{"id":"Blog","title":"Blog"},"author":[{"id":"boopathikumar","name":"Boopathi Kumar","image":{"type":"image","mimeType":"image/png","src":"/assets/static/boopathikumar.b4b2a9b.88a64e3560329858ee8479f29ae4cf5b.png","size":{"width":48,"height":64},"sizes":"(max-width: 48px) 100vw, 48px","srcset":["/assets/static/boopathikumar.b4b2a9b.88a64e3560329858ee8479f29ae4cf5b.png 48w"],"dataUri":"data:image/svg+xml,%3csvg fill='none' viewBox='0 0 48 64' xmlns='http://www.w3.org/2000/svg' xmlns:xlink='http://www.w3.org/1999/xlink'%3e%3cdefs%3e%3cfilter id='__svg-blur-d59f8e7b1d687340d3929028c9bdf315'%3e%3cfeGaussianBlur in='SourceGraphic' stdDeviation='40'/%3e%3c/filter%3e%3c/defs%3e%3cimage x='0' y='0' filter='url(%23__svg-blur-d59f8e7b1d687340d3929028c9bdf315)' width='48' height='64' xlink:href='data:image/png%3bbase64%2c/9j/2wBDAAYEBQYFBAYGBQYHBwYIChAKCgkJChQODwwQFxQYGBcUFhYaHSUfGhsjHBYWICwgIyYnKSopGR8tMC0oMCUoKSj/2wBDAQcHBwoIChMKChMoGhYaKCgoKCgoKCgoKCgoKCgoKCgoKCgoKCgoKCgoKCgoKCgoKCgoKCgoKCgoKCgoKCgoKCj/wAARCABVAEADASIAAhEBAxEB/8QAHAAAAAcBAQAAAAAAAAAAAAAAAAIDBAUGBwgB/8QAMBAAAgEDAwIEBQQCAwAAAAAAAQIDAAQRBRIhMUEGBxNRIjJhcYEUI0KxYqGRwdH/xAAZAQACAwEAAAAAAAAAAAAAAAAAAgEDBAX/xAAeEQACAgMBAQEBAAAAAAAAAAAAAQIDESExQRIiMv/aAAwDAQACEQMRAD8A6QRlPTJPsKON57BfvzRtuOVH4pvqVwbXTbu5QgGKF5ASM4IUnpXL6Xtme%2bPfM3TPD5vba2cXOpW/7YUn4A/cHHt/dc96r401zUr97q41i89VjkBJmRUHsAOAKr%2boXEt1ezyzOzyzyMzMTySTkmrNbeC5JLKKYS53qG29812IU10L9elkU5fySHhzzD17Rdq2eqzvHnJimb1FJPXhq2HwV5rJqzJDqlusc/QyR8KR9u1c8X3h2%2btZM%2bnkDutPdCuLnTJvUeFwo43EdKLaK7FmPRXn1HaEbLIiuhyrDIIr3AzVc8v9Uj1fwvaTI24oojbJ7irKOlcr5w8MVnnWkruNZLeZJcekyMrjr8JHP%2bqW6UCAw2kZB4OanBBxLaaW1/4ke3iVnhjkYk7cYUHjPtnitOhhkVUCAhVGMdqSjsZbTV9cEEYVzMAOPYGq3PqOu2dzkTRlcEsjkHnPy9OtdCTdz14a0lWi2zwHadwBOKiIowVu1eLho2GMfSlZtXu4rCCaa33PMMKFPU%2b1KeC55NX1uK2vbUwQzqyjJO4npx%2baRRkk2Dklo07yGsGtPBPquWJuJi4BGMADGB71o4pCwto7KygtbdAkMCCNFHYAUqx4PNYpz%2bpORkFK8NJpKruVBIcdVPBFNLjVLWCQo0ilwcEDk5o29IhvHTMfMhotJ8WBhCqRXcCyllGAXBIY/wBVVbq7s5ZBJ6cQI%2baRlzgVF%2bZN9qM/i2aS5B2Fcw5%2bVhnoKraobxmnWWTHRo1Py/TFb1RhLLNNNjceF01qSxu7W3RJYnz8oz/VWXyr0mJ9eMirvSCMsxPOCeBWNzRFJEkhlMTJ/LBH91vHlBqttbadcWdwm2ct6hlA5fjnP/VRbU4w/OwtvUdPrNP70MZPNIW%2boWdwVEN1C7N0XcM/8U6GD05rB8NdM6lnhncuq3VyS6yyAOfmzgkf%2bU1vdQlt4m/Q6dPeXHYMREhP1Y9vxT21t980kjDCg4H4o9wcMCOmetdGOF4YZNso2uWaazp0Z1MRWGoRuSFZxgfY9wR/uqFrHh26srolWaOQ/wAkOVetn1Szt7sAXESup9xUYvh/TVkZhCy5GGCuQD9SKtyurTLKb5V/l7RkFlo80lxFc30zi3Rw20L85B7DvVytbW9uJI54Xmtoc5EYcqT/AJHHer3FZWqQn9tCF4zt64pW0tVeIOyDLc06twiq6btlkaorSKkiArnqM8qfpUzpmq3VtIN0pZgP5chhnOPvSAjC/D2x0okkXP25FUNKXQi8cH8jH0xj4V9hRHCtBjtiiSNvXZn4R3pG5aX9PL6IDybTsVjgE44BPbmoSJexLO5CT0FFAyTmmlhPdNp8EmpQJb3BUl4kbcFOeBnvTiMlpVzxu9%2b1N6Kwj5WKZR03cfmpK14jA%2blRl8RHJ6eQTuGSO9PbaT4BQ%2bAHuDtkBpK5l9MKSOCcZr2dwc803uGEtowB%2bIDj70ICQjGYzIe3QU0mnPOBihQpUO9EdcOWkQH3pwGzgmhQp2INb0n14QOBinlvIdtChUvhC6JSSncfvRVc7iOxoUKBvD//2Q==' /%3e%3c/svg%3e"},"path":"/author/boopathi-kumar/"}]}},{"node":{"title":"Switching Between Different Java Versions - Windows","excerpt":"If you are working on multiple java projects or multiple tools that requires java, You might need to switch between multiple java versions often. This blog helps you to switch between different java version easily.","image":{"type":"image","mimeType":"image/png","src":"/assets/static/cover.771f6be.1e5ddc0b509dcf21855753f50db2ba49.png","size":{"width":560,"height":315},"sizes":"(max-width: 560px) 100vw, 560px","srcset":["/assets/static/cover.771f6be.1e5ddc0b509dcf21855753f50db2ba49.png 560w"],"dataUri":"data:image/svg+xml,%3csvg fill='none' viewBox='0 0 560 315' xmlns='http://www.w3.org/2000/svg' xmlns:xlink='http://www.w3.org/1999/xlink'%3e%3cdefs%3e%3cfilter id='__svg-blur-cb2849bac6d68ca4830a22f121463ef8'%3e%3cfeGaussianBlur in='SourceGraphic' stdDeviation='40'/%3e%3c/filter%3e%3c/defs%3e%3cimage x='0' y='0' filter='url(%23__svg-blur-cb2849bac6d68ca4830a22f121463ef8)' width='560' height='315' xlink:href='data:image/png%3bbase64%2ciVBORw0KGgoAAAANSUhEUgAAAEAAAAAkCAYAAAA5DDySAAAACXBIWXMAAAsSAAALEgHS3X78AAAHWElEQVRo3u1aWU9UTRDlF7gBMsMwc3sW9n1HlH0Lm8gmRhaRVYMgCIiouKBEEDfUCCqiGI0PJr4YYnwz/rH66hTTcJn4mYmAAfWhUn37dvetc7rqdI8Y4HQ66W%2b2gH8E/I4PKUXK6ze0/woCTICVt0/tEPDbT4BatTXAIMHbVt5s%2bHMJ0OCditzsrewL2MeyOZxqQ0b8sQQAvMsLPo79kHJRuCkjVrNgfay0/xQCNHgb%2bzT2Mwy%2bmz2ywDCXhIxdzxgtlE4TOU5zuWxx2QRsD/h1cB62OcNFY0xAH5vdBAAZ4PGCC3MqIU2Z1rDzs5SLcz1D1E7PAGUiwGAfw0H3MPB%2b5aZZtkDucyuDTVEwgxrmdzVebfB4s8PwkpLs7TeUMpXJTs8A01nvMhy8s05KcNgph23WblAEe0d4FLldTAYTMckEtDG4QfbTbBOcLRX8PMrtWvZL/FzkLSWX2gUlsJoBLnLabRSad4ysZW1kS8wiIzmbItLyyR6fRkZ0IoVW9VAQEzTOWTHCYNsZ3Dz7cbZlBj3A/hj3LRtuqmcf7D1NdnQJKB8zIqLJWtRENiYiNL%2bOLLnHBLw9KZvsebUU7AgTAhYZ8EO2KQZdzCBXGHQ5%2bwXug6EdsisywHzVZXAuazDZsisopLafQmr6yFLdywQkkPKEk%2bL3kTwWoBMYWIa33iGM0A2IYgp7mGvtNrnDj8E1AWRwYekFZMssIUdcKpdBK1kquyi0oIHBR3BmxIgOeFgDItWq2oeZFN/hVXz02Z3mq7TaDQSg/pmAjEIG3UnW0hayljSTtfgk%2b5NkKe8ga2EjOVgLlGHISbF%2b3vtcn5Vz2y9K21cCLIIum4WUyyVZYGchBGgjMpYU7775crMB7G6%2bCaoNlyCXgBeQrPZOw%2b71q6Z8Lkw/Xdfn8uTcwl%2bVv0SA/rDb7V57djFYmPn9xnGu1buBjHGtj/EDmF7f3Gf%2b9m8lQH/Q4XDQwYMHxSOYsLAwslgs0oYhYI/HI2MxDh7PGKfn4FkDQ1uDMgPU6%2bh5ejzWRBvjNkPCL2UAAomNjaX6%2bnpKSEig4OBgOnToEB09elTaMAS8b98%2bioiIoDNnzpDdbqe9e/fKmIyMDNq/fz8FBgZSaGiovAsKCpJng4URc/GMNt7t2bNH5qWnp8vaUVFR1NvbS1arlUJCQoQIZfq3hm0nAIEB2KdPn6izs5Pu3LlD58%2bfp/n5eTp79iydPn2acnNzqb%2b/X9oPHz6UgBsbG%2bnixYtUVVUl7StXrlBJSQmlpKTQ4OAgjY%2bPC6FZWVnU19cnO3/kyBHq7u6m69evU2lpKX348IEqKyvp%2bfPn9PjxY5kPwnxLZFtLAIEdOHCAWlpa6P379/T582d68uQJzczM0Llz5%2bjy5ct048YNev36NeXn5wtB3759o7y8POmvra0VUgD41q1bdO3aNZmL8SA3LS2N3rx5Q2/fvqV3797RwMCAzGtqaqLl5WUhCYRcuHCBHj169HsJ0IbUTE1Npa9fv8rufvz4UYABCILFTr98%2bVIyBSBA0PHjx%2bn%2b/fsSOAhoaGiQrIH/8uWLZAXWRXmAxMXFRdnxuLg42e2uri4B3tbWJhlQV1cnRCUnJ8u8bSPgZ7WVmJgoILErEKaKigrZaWgEygD9hw8fljHQCRiec3JyJPDMzEwpiadPnwpREDVkAeZHR0cLePQhk1AqWA9pjzWSkpJkHWiC78nj7wkR4C94BAXxA9NIOTxrwYKFh4dLQBAyiJ8WSozH6QDBioyMlHEQPogX3sFnZ2eLVhQVFa2trVXfZrOJxxoYCzKwDtZAHzzem08J3dbx/4wIvzMAgQMQdhxAsaMwsA%2bPckDKY2dOnDghuzU8PCzBYg52EoKGtEbQ6IOWIFDt9XdiYmJk9/Ht%2bPj4tWf4srIyKQVkG7JJH6f4HmIBYVgbsYLITWcAGEXAUOBXr17RixcvBOjVq1dFqaH0ELHCwkIRNQT3/ft3qq6uFvFDnULcZmdnpY150ArULtIeu9Xe3i5ihvWwNtrPnj0T8cNc6AnGXrp0SU4E9J86dUr6oCdYE3Hdvn1bygPCjDj8EUe/MgCsYmchZAgGoCF2CHhiYoImJyepo6OD5ubmBDgAYOcRSHl5uYgijsu7d%2b/S1NSUeIgYiEM2gWDMXVhYoKGhIZk3MjIiRyPEEhk2PT1N9%2b7dE8FFn/4W%2bvDc2toqJPf09IjHeH90wO8MKC4ulqDwIRx/SG%2bkI9gHKAC8efMmFRQUyK5AqUEOdn1lZUWyA1mEMfBQ%2bebmZklT1DIuOgCHXcM7rIdMgeojpcfGxsTw/dHRUQH/4MEDOUFw9GqPzMAcbI7WgS0RQSwGIUM2wNBGsCBH9wMIhA19mAcxrKmpoaWlJQFqHgtDn77n6/l4xjgthBivRQ79eg3d1mZ%2bjxgw5kcnw6aOQf2Dx/zD5//69H0ecxGQ%2bW5vHvujH1O%2ba//oO/7GsukS2MwvLn/OZN9jaiv/cLol94CtDGAn/VX433%2bQ%2bEfAqv0H%2b116sT%2bjG8gAAAAASUVORK5CYII=' /%3e%3c/svg%3e"},"path":"/blogs/switching-between-different-java-versions-windows/","timeToRead":1,"humanTime":"25 Jul 2020","datetime":"2020-07-25T00:00:00.000Z","category":{"id":"Blog","title":"Blog"},"author":[{"id":"kumaravel","name":"Kumaravel","image":{"type":"image","mimeType":"image/png","src":"/assets/static/kumaravel.f26c338.62b7462775409c8a2ece49d93896682d.png","size":{"width":50,"height":64},"sizes":"(max-width: 50px) 100vw, 50px","srcset":["/assets/static/kumaravel.f26c338.62b7462775409c8a2ece49d93896682d.png 50w"],"dataUri":"data:image/svg+xml,%3csvg fill='none' viewBox='0 0 50 64' xmlns='http://www.w3.org/2000/svg' xmlns:xlink='http://www.w3.org/1999/xlink'%3e%3cdefs%3e%3cfilter id='__svg-blur-acb62cea0c5ba9796bef793e28a4ac1c'%3e%3cfeGaussianBlur in='SourceGraphic' stdDeviation='40'/%3e%3c/filter%3e%3c/defs%3e%3cimage x='0' y='0' filter='url(%23__svg-blur-acb62cea0c5ba9796bef793e28a4ac1c)' width='50' height='64' xlink:href='data:image/png%3bbase64%2c/9j/2wBDAAYEBQYFBAYGBQYHBwYIChAKCgkJChQODwwQFxQYGBcUFhYaHSUfGhsjHBYWICwgIyYnKSopGR8tMC0oMCUoKSj/2wBDAQcHBwoIChMKChMoGhYaKCgoKCgoKCgoKCgoKCgoKCgoKCgoKCgoKCgoKCgoKCgoKCgoKCgoKCgoKCgoKCgoKCj/wAARCABSAEADASIAAhEBAxEB/8QAHQAAAQQDAQEAAAAAAAAAAAAABwAEBggBAgUDCf/EADcQAAEDAgQDBQcCBgMAAAAAAAECAwQAEQUGEiEHEzFBUWFxgQgUFSIykaFCgiMkM0NisVJywf/EABoBAAIDAQEAAAAAAAAAAAAAAAEFAAMEAgb/xAApEQACAgECBAQHAAAAAAAAAAAAAQIDEQQxBSFBcQYSMrEiMzRhgZHB/9oADAMBAAIRAxEAPwC1NKlSJtUIauLS2hSlqCUpFySbAChpmjjNlrBZCmIynsSdTsoxraB%2b47H0vQ29pDiBJ%2bLKy5hzy24ce3vYSbc5wgHSf8QCNu01X5%2ba%2br5krukfpA6UMhLcYJx5y1LeDeKMy8MCiAl5Y5jfqU7j1FqLMSSzLjNSIrqHmHEhSHEKCkqB7QRXznkv%2b5q1P35bqAdj0Pb96M3s6cW3MKxSFlLExzMLku8uM8rZTCldAe9JO3heiAtxSpA0qhBVg1revKWp0RHix/WCFFH/AGtt%2baGQ4KfZ%2by/LzXxHzIllSY6G5roLhBN7GwH4rGG8IJTiRbEWz33bNTxiLIkyMTmNvKE2a4lbjhSAdYT8xA6CmLEbNcZanY%2bLuIbQNWh%2bz2o3tptpFtt738KwSvlJ/C8DSOljFYkssaYbwiwXD0B/EUO4jJTuC6ohCT4Jrh5myqXsyYD8Mj8px2czHc0JsdCnE7j7VNcwSswTYsWNAniK662VLWlsE3HYO6/fvXFw/B8SiO82RLlKfSpJbcLyydexuL9CFdDVddjclNsunSvK60i096zemzWsNoCzdYSAo%2bNt63CrU0EuDa9ZTWtbA2oBYJszYF8AxjmMrKo0pS3U3H0m%2b4/Nc%2bfi8JnDX%2be800sIJ1KNqkvFnFo4gGKwoOzoim33EI3LaFagL92qx28KDa48PGH/AHpSQ842nSlKllOkXv076X31KMsrYa6a1zhz3HUHO2Hv4hhyHVMNBvVqXZQB8N//AGpfBQjMuNQ4sN4hpxWsuo30pG5I%2b1QeYyiQxyZGGMx2U9VGVrCvS%2b1EzgPh0RjB3pTQGvUqOwk9jaSLkeFyB6UaqVKSx0OtRc4QeeoVx03N/OsUr1i9MBOcrMWZsGy3H52N4gxETa4StV1q8kjc0C%2bIXtEttx3omUIiw8oFImyQPk8Uo7/P7VXrFcbnYpIcfmyXXnVm6luKKlH1Ncdd1KVckm1aVXGP3BkLfAfMj87Ps%2bDjD7ks4yyeYt5ZUpbiSVC5PbYq/FE/NnDx6MVy4rjrbKt%2beyL2Hcodn%2bqrFlbElYLmXDcRQopMZ9DhINjYHcfa9X3axRrC8IfnS3Erw9pkvlz/AACdX5FU3UqyOdmi%2bm91vGMoCWWcjTcXnJje%2bOSkjdaijShA71d/l212uMeNO8NpuS2suLS2YzUnUhYuHUkt6tY8Tf16dKmvBvN7eYoc2O6yyxMbWXwlpASFtqO2w7U9D6UCvajxHn8TWIwJIiwUp69qlE1zoK02pN5O%2bIOcZOuSxgMOT%2bN2W8bLTGKFeDzF7fxzqZUfBY6fuAooMutvtIdYcQ40sXStCgpKh4Eda%2beSX/l7rHapTlHPmO5YeBwjEnmG7/M0TqbV5oO1MZaOMvQ8C5WtbkEB3t31kJupw%2bVePMCHEFYBT206KUpN0kgHuO1VRWS1sbOJsQattkXMrDnA2DimJL5zcRoxXGyd1rQSEJPn8npVTnRqTUvyhmCUMsycvav5RUtMy1/1BBTby6H0qq%2bbqrlJdC/SVK%2b6Nb2bCdwkxpGC50juy1paYdQR3ITrO4Ph0t3VAeOeIe/cU8ac1agytLIPkLn/AGa6wUlLDbvalNqGU59UiTIecUpanHFKJUbk71j4ZY5Zi%2bnMb8e08YONi68v0eK123FOWAVKG9c4oKiUlRNulekQFLqSronpTmEnk821yPB2nDO8du//ABpUqzw3Za9jdf0U/wArbYkbd1KlVWr%2bVLs/Y06D6ivuvcm8hSvh6tz0PbQ1/sjypUqwcJ9UuyHfiLav8/wwPrHkK9E/R%2b4UqVO47nl3sf/Z' /%3e%3c/svg%3e"},"path":"/author/kumaravel/"}]}}]}}},"context":{}}